
v 0.000000 0.000000 0.000000
v 0.100000 0.100000 0.000000
v 0.100000 0.000000 0.100000
v 0.000000 0.100000 0.100000
v 0.100000 0.100000 0.100000

v 4.000000 0.000000 0.000000
v 4.000000 0.100000 0.000000
v 4.000000 0.000000 0.100000
v 4.000000 0.100000 0.100000

v 0.000000 4.000000 0.000000
v 0.100000 4.000000 0.000000
v 0.000000 4.000000 0.100000
v 0.100000 4.000000 0.100000

v 0.000000 0.000000 4.000000
v 0.100000 0.000000 4.000000
v 0.000000 0.100000 4.000000
v 0.100000 0.100000 4.000000

s off

vt 0.250000 0.750000
vt 0.750000 0.750000
vt 0.250000 0.250000

f 1/1 6/1 3/1
f 6/1 8/1 3/1
f 1/1 2/1 6/1
f 6/1 2/1 7/1
f 3/1 8/1 5/1
f 5/1 8/1 9/1
f 2/1 5/1 7/1
f 7/1 5/1 9/1
f 6/1 7/1 8/1
f 9/1 8/1 7/1

f 1/2 10/2 2/2
f 10/2 11/2 2/2
f 1/2 4/2 10/2
f 10/2 4/2 12/2
f 2/2 11/2 5/2
f 5/2 11/2 13/2
f 4/2 5/2 12/2
f 12/2 5/2 13/2
f 12/2 11/2 10/2
f 11/2 12/2 13/2

f 1/3 14/3 4/3
f 14/3 16/3 4/3
f 1/3 3/3 14/3
f 14/3 3/3 15/3
f 4/3 16/3 5/3
f 5/3 16/3 17/3
f 3/3 5/3 15/3
f 15/3 5/3 17/3
f 14/3 15/3 16/3
f 17/3 16/3 15/3