# Blender v2.68 (sub 0) OBJ File: ''
# www.blender.org
v 0.000000 -1.250000 0.000000
v 0.125000 -1.216506 -0.000000
v 0.216507 -1.125000 -0.000000
v 0.250000 -1.000000 -0.000000
v 0.216507 -0.875000 -0.000000
v 0.125000 -0.783494 -0.000000
v 0.000000 -0.750000 -0.000000
v -0.125000 -0.783494 0.000000
v -0.216506 -0.875000 0.000000
v -0.250000 -1.000000 0.000000
v -0.216506 -1.125000 0.000000
v -0.125000 -1.216506 0.000000
v 0.000000 -1.239306 -0.163158
v 0.125000 -1.206099 -0.158786
v 0.216507 -1.115376 -0.146842
v 0.250000 -0.991445 -0.130526
v 0.216507 -0.867514 -0.114210
v 0.125000 -0.776791 -0.102266
v 0.000000 -0.743584 -0.097895
v -0.125000 -0.776791 -0.102266
v -0.216506 -0.867514 -0.114210
v -0.250000 -0.991445 -0.130526
v -0.216506 -1.115376 -0.146842
v -0.125000 -1.206099 -0.158786
v 0.000000 -1.207407 -0.323524
v 0.125000 -1.175055 -0.314855
v 0.216507 -1.086667 -0.291171
v 0.250000 -0.965926 -0.258819
v 0.216506 -0.845185 -0.226467
v 0.125000 -0.756797 -0.202783
v 0.000000 -0.724444 -0.194114
v -0.125000 -0.756797 -0.202783
v -0.216506 -0.845185 -0.226467
v -0.250000 -0.965926 -0.258819
v -0.216506 -1.086667 -0.291171
v -0.125000 -1.175055 -0.314855
v 0.000000 -1.154849 -0.478354
v 0.125000 -1.123905 -0.465537
v 0.216506 -1.039364 -0.430519
v 0.250000 -0.923880 -0.382683
v 0.216506 -0.808395 -0.334848
v 0.125000 -0.723854 -0.299830
v 0.000000 -0.692910 -0.287013
v -0.125000 -0.723854 -0.299830
v -0.216506 -0.808395 -0.334848
v -0.250000 -0.923880 -0.382683
v -0.216506 -1.039364 -0.430519
v -0.125000 -1.123905 -0.465537
v 0.000000 -1.082532 -0.625000
v 0.125000 -1.053525 -0.608253
v 0.216506 -0.974279 -0.562500
v 0.250000 -0.866025 -0.500000
v 0.216506 -0.757772 -0.437500
v 0.125000 -0.678525 -0.391747
v 0.000000 -0.649519 -0.375000
v -0.125000 -0.678525 -0.391747
v -0.216506 -0.757772 -0.437500
v -0.250000 -0.866025 -0.500000
v -0.216506 -0.974279 -0.562500
v -0.125000 -1.053525 -0.608253
v 0.000000 -0.991692 -0.760952
v 0.125000 -0.965119 -0.740562
v 0.216506 -0.892523 -0.684857
v 0.250000 -0.793353 -0.608761
v 0.216506 -0.694184 -0.532666
v 0.125000 -0.621587 -0.476961
v 0.000000 -0.595015 -0.456571
v -0.125000 -0.621587 -0.476961
v -0.216506 -0.694184 -0.532666
v -0.250000 -0.793353 -0.608761
v -0.216506 -0.892523 -0.684857
v -0.125000 -0.965119 -0.740562
v 0.000000 -0.883883 -0.883884
v 0.125000 -0.860200 -0.860200
v 0.216506 -0.795495 -0.795495
v 0.250000 -0.707107 -0.707107
v 0.216506 -0.618718 -0.618718
v 0.125000 -0.554014 -0.554014
v 0.000000 -0.530330 -0.530330
v -0.125000 -0.554014 -0.554014
v -0.216506 -0.618718 -0.618718
v -0.250000 -0.707107 -0.707107
v -0.216506 -0.795495 -0.795495
v -0.125000 -0.860200 -0.860200
v 0.000000 -0.760952 -0.991691
v 0.125000 -0.740562 -0.965119
v 0.216506 -0.684857 -0.892522
v 0.250000 -0.608761 -0.793353
v 0.216506 -0.532666 -0.694184
v 0.125000 -0.476961 -0.621587
v 0.000000 -0.456571 -0.595015
v -0.125000 -0.476961 -0.621587
v -0.216506 -0.532666 -0.694184
v -0.250000 -0.608762 -0.793353
v -0.216506 -0.684857 -0.892522
v -0.125000 -0.740562 -0.965119
v -0.000000 -0.625000 -1.082532
v 0.125000 -0.608253 -1.053525
v 0.216506 -0.562500 -0.974279
v 0.250000 -0.500000 -0.866025
v 0.216506 -0.437500 -0.757772
v 0.125000 -0.391747 -0.678525
v -0.000000 -0.375000 -0.649519
v -0.125000 -0.391747 -0.678525
v -0.216506 -0.437500 -0.757772
v -0.250000 -0.500000 -0.866025
v -0.216506 -0.562500 -0.974279
v -0.125000 -0.608253 -1.053525
v -0.000000 -0.478355 -1.154849
v 0.125000 -0.465537 -1.123905
v 0.216506 -0.430519 -1.039364
v 0.250000 -0.382684 -0.923879
v 0.216506 -0.334848 -0.808394
v 0.125000 -0.299830 -0.723854
v -0.000000 -0.287013 -0.692910
v -0.125000 -0.299830 -0.723854
v -0.216506 -0.334848 -0.808394
v -0.250000 -0.382684 -0.923879
v -0.216506 -0.430519 -1.039364
v -0.125000 -0.465537 -1.123905
v -0.000000 -0.323524 -1.207407
v 0.125000 -0.314855 -1.175055
v 0.216506 -0.291171 -1.086666
v 0.250000 -0.258819 -0.965926
v 0.216506 -0.226467 -0.845185
v 0.125000 -0.202783 -0.756797
v -0.000000 -0.194114 -0.724444
v -0.125000 -0.202783 -0.756797
v -0.216506 -0.226467 -0.845185
v -0.250000 -0.258819 -0.965926
v -0.216506 -0.291171 -1.086666
v -0.125000 -0.314855 -1.175055
v -0.000000 -0.163158 -1.239306
v 0.125000 -0.158786 -1.206099
v 0.216506 -0.146842 -1.115375
v 0.250000 -0.130526 -0.991445
v 0.216506 -0.114210 -0.867514
v 0.125000 -0.102266 -0.776791
v -0.000000 -0.097895 -0.743584
v -0.125000 -0.102266 -0.776791
v -0.216506 -0.114210 -0.867514
v -0.250000 -0.130526 -0.991445
v -0.216506 -0.146842 -1.115375
v -0.125000 -0.158786 -1.206099
v -0.000000 -0.000000 -1.250000
v 0.125000 -0.000000 -1.216506
v 0.216506 -0.000000 -1.125000
v 0.250000 -0.000000 -1.000000
v 0.216506 -0.000000 -0.875000
v 0.125000 -0.000000 -0.783494
v -0.000000 -0.000000 -0.750000
v -0.125000 -0.000000 -0.783494
v -0.216506 -0.000000 -0.875000
v -0.250000 -0.000000 -1.000000
v -0.216506 -0.000000 -1.125000
v -0.125000 -0.000000 -1.216506
v -0.000000 0.163158 -1.239306
v 0.125000 0.158786 -1.206099
v 0.216506 0.146842 -1.115375
v 0.250000 0.130526 -0.991445
v 0.216506 0.114211 -0.867514
v 0.125000 0.102267 -0.776791
v -0.000000 0.097895 -0.743584
v -0.125000 0.102267 -0.776791
v -0.216506 0.114211 -0.867514
v -0.250000 0.130526 -0.991445
v -0.216507 0.146842 -1.115375
v -0.125000 0.158786 -1.206099
v -0.000000 0.323524 -1.207407
v 0.125000 0.314855 -1.175055
v 0.216506 0.291171 -1.086667
v 0.250000 0.258819 -0.965926
v 0.216506 0.226467 -0.845185
v 0.125000 0.202783 -0.756797
v -0.000000 0.194114 -0.724444
v -0.125000 0.202783 -0.756797
v -0.216507 0.226467 -0.845185
v -0.250000 0.258819 -0.965926
v -0.216507 0.291171 -1.086667
v -0.125000 0.314855 -1.175055
v -0.000000 0.478354 -1.154849
v 0.125000 0.465537 -1.123905
v 0.216506 0.430519 -1.039364
v 0.250000 0.382684 -0.923880
v 0.216506 0.334848 -0.808395
v 0.125000 0.299830 -0.723854
v -0.000000 0.287013 -0.692910
v -0.125000 0.299830 -0.723854
v -0.216507 0.334848 -0.808395
v -0.250000 0.382683 -0.923879
v -0.216507 0.430519 -1.039364
v -0.125000 0.465537 -1.123905
v -0.000000 0.625000 -1.082532
v 0.125000 0.608253 -1.053526
v 0.216506 0.562500 -0.974279
v 0.250000 0.500000 -0.866026
v 0.216506 0.437500 -0.757772
v 0.125000 0.391747 -0.678525
v -0.000000 0.375000 -0.649519
v -0.125000 0.391747 -0.678525
v -0.216507 0.437500 -0.757772
v -0.250000 0.500000 -0.866025
v -0.216507 0.562500 -0.974279
v -0.125000 0.608253 -1.053526
v -0.000000 0.760952 -0.991692
v 0.125000 0.740562 -0.965119
v 0.216506 0.684857 -0.892522
v 0.250000 0.608762 -0.793353
v 0.216506 0.532666 -0.694184
v 0.125000 0.476961 -0.621587
v -0.000000 0.456571 -0.595015
v -0.125000 0.476961 -0.621587
v -0.216507 0.532666 -0.694184
v -0.250000 0.608761 -0.793353
v -0.216507 0.684857 -0.892522
v -0.125000 0.740562 -0.965119
v -0.000000 0.883884 -0.883883
v 0.125000 0.860200 -0.860200
v 0.216506 0.795495 -0.795495
v 0.250000 0.707107 -0.707107
v 0.216506 0.618719 -0.618718
v 0.125000 0.554014 -0.554013
v -0.000000 0.530330 -0.530330
v -0.125000 0.554014 -0.554013
v -0.216507 0.618719 -0.618718
v -0.250000 0.707107 -0.707107
v -0.216507 0.795495 -0.795495
v -0.125000 0.860200 -0.860200
v -0.000000 0.991692 -0.760952
v 0.125000 0.965119 -0.740562
v 0.216506 0.892523 -0.684857
v 0.250000 0.793353 -0.608761
v 0.216506 0.694184 -0.532666
v 0.125000 0.621587 -0.476961
v -0.000000 0.595015 -0.456571
v -0.125000 0.621587 -0.476961
v -0.216507 0.694184 -0.532666
v -0.250000 0.793353 -0.608761
v -0.216507 0.892522 -0.684857
v -0.125000 0.965119 -0.740562
v -0.000000 1.082532 -0.625000
v 0.125000 1.053525 -0.608254
v 0.216506 0.974279 -0.562500
v 0.250000 0.866025 -0.500000
v 0.216506 0.757772 -0.437500
v 0.125000 0.678525 -0.391747
v -0.000000 0.649519 -0.375000
v -0.125000 0.678525 -0.391747
v -0.216507 0.757772 -0.437500
v -0.250000 0.866025 -0.500000
v -0.216507 0.974278 -0.562500
v -0.125000 1.053525 -0.608254
v -0.000000 1.154849 -0.478354
v 0.125000 1.123905 -0.465537
v 0.216506 1.039364 -0.430519
v 0.250000 0.923880 -0.382684
v 0.216506 0.808395 -0.334848
v 0.125000 0.723854 -0.299830
v -0.000000 0.692910 -0.287013
v -0.125000 0.723854 -0.299830
v -0.216507 0.808394 -0.334848
v -0.250000 0.923879 -0.382683
v -0.216507 1.039364 -0.430519
v -0.125000 1.123905 -0.465537
v -0.000000 1.207407 -0.323524
v 0.125000 1.175055 -0.314855
v 0.216506 1.086667 -0.291171
v 0.250000 0.965926 -0.258819
v 0.216506 0.845185 -0.226467
v 0.125000 0.756797 -0.202783
v -0.000000 0.724444 -0.194114
v -0.125000 0.756797 -0.202783
v -0.216507 0.845185 -0.226467
v -0.250000 0.965926 -0.258819
v -0.216507 1.086667 -0.291171
v -0.125000 1.175055 -0.314855
v -0.000000 1.239306 -0.163158
v 0.125000 1.206099 -0.158786
v 0.216506 1.115375 -0.146842
v 0.250000 0.991445 -0.130526
v 0.216506 0.867514 -0.114211
v 0.125000 0.776791 -0.102267
v -0.000000 0.743584 -0.097895
v -0.125000 0.776791 -0.102267
v -0.216507 0.867514 -0.114211
v -0.250000 0.991445 -0.130526
v -0.216507 1.115375 -0.146842
v -0.125000 1.206099 -0.158786
v -0.000000 1.250000 -0.000000
v 0.125000 1.216506 -0.000000
v 0.216506 1.125000 -0.000000
v 0.250000 1.000000 -0.000000
v 0.216506 0.875000 -0.000000
v 0.125000 0.783494 -0.000000
v -0.000000 0.750000 -0.000000
v -0.125000 0.783494 -0.000000
v -0.216507 0.875000 -0.000000
v -0.250000 1.000000 -0.000000
v -0.216507 1.125000 -0.000000
v -0.125000 1.216506 -0.000000
v -0.000000 1.239306 0.163158
v 0.125000 1.206099 0.158786
v 0.216506 1.115375 0.146842
v 0.250000 0.991445 0.130526
v 0.216506 0.867514 0.114211
v 0.125000 0.776791 0.102267
v -0.000000 0.743584 0.097895
v -0.125000 0.776791 0.102267
v -0.216507 0.867514 0.114211
v -0.250000 0.991445 0.130526
v -0.216507 1.115375 0.146842
v -0.125000 1.206099 0.158786
v -0.000000 1.207407 0.323524
v 0.125000 1.175055 0.314855
v 0.216506 1.086667 0.291171
v 0.250000 0.965926 0.258819
v 0.216506 0.845185 0.226467
v 0.125000 0.756797 0.202783
v -0.000000 0.724444 0.194114
v -0.125000 0.756797 0.202783
v -0.216506 0.845185 0.226467
v -0.250000 0.965926 0.258819
v -0.216507 1.086667 0.291171
v -0.125000 1.175055 0.314855
v -0.000000 1.154850 0.478354
v 0.125000 1.123906 0.465536
v 0.216506 1.039365 0.430518
v 0.250000 0.923880 0.382683
v 0.216506 0.808395 0.334848
v 0.125000 0.723854 0.299830
v -0.000000 0.692910 0.287012
v -0.125000 0.723854 0.299830
v -0.216506 0.808395 0.334848
v -0.250000 0.923880 0.382683
v -0.216506 1.039365 0.430518
v -0.125000 1.123906 0.465536
v -0.000000 1.082532 0.625000
v 0.125000 1.053526 0.608253
v 0.216506 0.974279 0.562500
v 0.250000 0.866026 0.500000
v 0.216506 0.757772 0.437500
v 0.125000 0.678526 0.391747
v -0.000000 0.649519 0.375000
v -0.125000 0.678526 0.391747
v -0.216506 0.757772 0.437500
v -0.250000 0.866026 0.500000
v -0.216506 0.974279 0.562500
v -0.125000 1.053526 0.608253
v -0.000000 0.991692 0.760952
v 0.125000 0.965119 0.740562
v 0.216506 0.892523 0.684857
v 0.250000 0.793353 0.608761
v 0.216506 0.694184 0.532666
v 0.125000 0.621587 0.476961
v -0.000000 0.595015 0.456571
v -0.125000 0.621587 0.476961
v -0.216506 0.694184 0.532666
v -0.250000 0.793353 0.608761
v -0.216506 0.892522 0.684857
v -0.125000 0.965119 0.740562
v -0.000000 0.883884 0.883883
v 0.125000 0.860200 0.860200
v 0.216506 0.795495 0.795495
v 0.250000 0.707107 0.707107
v 0.216506 0.618719 0.618718
v 0.125000 0.554014 0.554013
v -0.000000 0.530330 0.530330
v -0.125000 0.554014 0.554013
v -0.216506 0.618719 0.618718
v -0.250000 0.707107 0.707107
v -0.216506 0.795495 0.795495
v -0.125000 0.860200 0.860200
v -0.000000 0.760952 0.991691
v 0.125000 0.740563 0.965119
v 0.216506 0.684857 0.892522
v 0.250000 0.608762 0.793353
v 0.216506 0.532667 0.694184
v 0.125000 0.476961 0.621587
v -0.000000 0.456571 0.595015
v -0.125000 0.476961 0.621587
v -0.216506 0.532667 0.694184
v -0.250000 0.608762 0.793353
v -0.216506 0.684857 0.892522
v -0.125000 0.740563 0.965119
v 0.000000 0.625000 1.082532
v 0.125000 0.608253 1.053526
v 0.216506 0.562500 0.974279
v 0.250000 0.500000 0.866025
v 0.216506 0.437500 0.757772
v 0.125000 0.391747 0.678525
v 0.000000 0.375000 0.649519
v -0.125000 0.391747 0.678525
v -0.216506 0.437500 0.757772
v -0.250000 0.500000 0.866026
v -0.216506 0.562500 0.974279
v -0.125000 0.608253 1.053526
v 0.000000 0.478354 1.154849
v 0.125000 0.465537 1.123905
v 0.216506 0.430519 1.039364
v 0.250000 0.382684 0.923879
v 0.216506 0.334848 0.808395
v 0.125000 0.299830 0.723854
v 0.000000 0.287013 0.692910
v -0.125000 0.299830 0.723854
v -0.216506 0.334848 0.808395
v -0.250000 0.382683 0.923880
v -0.216506 0.430519 1.039364
v -0.125000 0.465537 1.123905
v 0.000000 0.323524 1.207407
v 0.125000 0.314855 1.175055
v 0.216506 0.291172 1.086666
v 0.250000 0.258819 0.965926
v 0.216506 0.226467 0.845185
v 0.125000 0.202783 0.756797
v 0.000000 0.194114 0.724444
v -0.125000 0.202783 0.756797
v -0.216506 0.226467 0.845185
v -0.250000 0.258819 0.965926
v -0.216506 0.291172 1.086666
v -0.125000 0.314855 1.175055
v 0.000000 0.163159 1.239306
v 0.125000 0.158787 1.206099
v 0.216506 0.146843 1.115375
v 0.250000 0.130527 0.991445
v 0.216506 0.114211 0.867514
v 0.125000 0.102267 0.776791
v 0.000000 0.097895 0.743584
v -0.125000 0.102267 0.776791
v -0.216506 0.114211 0.867514
v -0.250000 0.130527 0.991445
v -0.216506 0.146843 1.115375
v -0.125000 0.158787 1.206099
v 0.000000 -0.000000 1.250000
v 0.125000 -0.000000 1.216506
v 0.216506 -0.000000 1.125000
v 0.250000 -0.000000 1.000000
v 0.216506 -0.000000 0.875000
v 0.125000 -0.000000 0.783494
v 0.000000 -0.000000 0.750000
v -0.125000 -0.000000 0.783494
v -0.216506 -0.000000 0.875000
v -0.250000 -0.000000 1.000000
v -0.216506 -0.000000 1.125000
v -0.125000 -0.000000 1.216506
v 0.000000 -0.163158 1.239306
v 0.125000 -0.158786 1.206099
v 0.216507 -0.146842 1.115375
v 0.250000 -0.130526 0.991445
v 0.216506 -0.114210 0.867514
v 0.125000 -0.102266 0.776791
v 0.000000 -0.097895 0.743584
v -0.125000 -0.102266 0.776791
v -0.216506 -0.114210 0.867514
v -0.250000 -0.130526 0.991445
v -0.216506 -0.146842 1.115375
v -0.125000 -0.158786 1.206099
v 0.000000 -0.323523 1.207407
v 0.125000 -0.314854 1.175055
v 0.216507 -0.291171 1.086667
v 0.250000 -0.258819 0.965926
v 0.216507 -0.226466 0.845185
v 0.125000 -0.202783 0.756797
v 0.000000 -0.194114 0.724445
v -0.125000 -0.202783 0.756797
v -0.216506 -0.226466 0.845185
v -0.250000 -0.258819 0.965926
v -0.216506 -0.291171 1.086667
v -0.125000 -0.314855 1.175055
v 0.000000 -0.478355 1.154849
v 0.125000 -0.465537 1.123905
v 0.216507 -0.430519 1.039364
v 0.250000 -0.382684 0.923879
v 0.216507 -0.334848 0.808394
v 0.125000 -0.299830 0.723854
v 0.000000 -0.287013 0.692910
v -0.125000 -0.299830 0.723854
v -0.216506 -0.334848 0.808394
v -0.250000 -0.382684 0.923879
v -0.216506 -0.430519 1.039364
v -0.125000 -0.465537 1.123905
v 0.000000 -0.625000 1.082532
v 0.125000 -0.608253 1.053525
v 0.216507 -0.562500 0.974279
v 0.250000 -0.500000 0.866025
v 0.216507 -0.437500 0.757772
v 0.125000 -0.391747 0.678525
v 0.000000 -0.375000 0.649519
v -0.125000 -0.391747 0.678525
v -0.216506 -0.437500 0.757772
v -0.250000 -0.500000 0.866025
v -0.216506 -0.562500 0.974279
v -0.125000 -0.608253 1.053525
v 0.000000 -0.760952 0.991692
v 0.125000 -0.740562 0.965120
v 0.216507 -0.684856 0.892523
v 0.250000 -0.608761 0.793353
v 0.216507 -0.532666 0.694184
v 0.125000 -0.476961 0.621587
v 0.000000 -0.456571 0.595015
v -0.125000 -0.476961 0.621587
v -0.216506 -0.532666 0.694184
v -0.250000 -0.608761 0.793354
v -0.216506 -0.684856 0.892523
v -0.125000 -0.740562 0.965120
v 0.000000 -0.883883 0.883884
v 0.125000 -0.860199 0.860200
v 0.216507 -0.795495 0.795496
v 0.250000 -0.707106 0.707107
v 0.216507 -0.618718 0.618719
v 0.125000 -0.554013 0.554014
v 0.000000 -0.530330 0.530330
v -0.125000 -0.554013 0.554014
v -0.216506 -0.618718 0.618719
v -0.250000 -0.707106 0.707107
v -0.216506 -0.795495 0.795496
v -0.125000 -0.860199 0.860200
v 0.000000 -0.991692 0.760952
v 0.125000 -0.965119 0.740562
v 0.216507 -0.892523 0.684857
v 0.250000 -0.793353 0.608761
v 0.216507 -0.694184 0.532666
v 0.125000 -0.621587 0.476961
v 0.000000 -0.595015 0.456571
v -0.125000 -0.621587 0.476961
v -0.216506 -0.694184 0.532666
v -0.250000 -0.793353 0.608761
v -0.216506 -0.892523 0.684857
v -0.125000 -0.965119 0.740562
v 0.000000 -1.082532 0.625000
v 0.125000 -1.053525 0.608253
v 0.216507 -0.974279 0.562500
v 0.250000 -0.866025 0.500000
v 0.216507 -0.757772 0.437500
v 0.125000 -0.678525 0.391747
v 0.000000 -0.649519 0.375000
v -0.125000 -0.678525 0.391747
v -0.216506 -0.757772 0.437500
v -0.250000 -0.866025 0.500000
v -0.216506 -0.974279 0.562500
v -0.125000 -1.053525 0.608253
v 0.000000 -1.154849 0.478355
v 0.125000 -1.123905 0.465537
v 0.216507 -1.039364 0.430519
v 0.250000 -0.923879 0.382684
v 0.216507 -0.808394 0.334848
v 0.125000 -0.723854 0.299830
v 0.000000 -0.692910 0.287013
v -0.125000 -0.723854 0.299830
v -0.216506 -0.808394 0.334848
v -0.250000 -0.923879 0.382684
v -0.216506 -1.039364 0.430519
v -0.125000 -1.123905 0.465537
v 0.000000 -1.207407 0.323523
v 0.125000 -1.175055 0.314855
v 0.216507 -1.086667 0.291171
v 0.250000 -0.965926 0.258819
v 0.216507 -0.845185 0.226466
v 0.125000 -0.756797 0.202783
v 0.000000 -0.724444 0.194114
v -0.125000 -0.756797 0.202783
v -0.216506 -0.845185 0.226466
v -0.250000 -0.965926 0.258819
v -0.216506 -1.086667 0.291171
v -0.125000 -1.175055 0.314855
v 0.000000 -1.239306 0.163158
v 0.125000 -1.206099 0.158786
v 0.216507 -1.115376 0.146842
v 0.250000 -0.991445 0.130526
v 0.216507 -0.867514 0.114210
v 0.125000 -0.776791 0.102266
v 0.000000 -0.743584 0.097895
v -0.125000 -0.776791 0.102266
v -0.216506 -0.867514 0.114210
v -0.250000 -0.991445 0.130526
v -0.216506 -1.115376 0.146842
v -0.125000 -1.206099 0.158786
vt 0.382653 0.134287
vt 0.397464 0.165354
vt 0.363171 0.144086
vt 0.377584 0.174321
vt 0.339326 0.156849
vt 0.352655 0.184809
vt 0.317508 0.169156
vt 0.013967 0.590513
vt 0.021861 0.565548
vt 0.038096 0.599334
vt 0.045002 0.577489
vt 0.064418 0.604749
vt 0.070603 0.585189
vt 0.085882 0.605309
vt 0.745411 0.661342
vt 0.741880 0.640996
vt 0.766971 0.658069
vt 0.763283 0.636814
vt 0.793805 0.654691
vt 0.789686 0.630954
vt 0.818722 0.652114
vt 0.556975 0.342651
vt 0.575077 0.361569
vt 0.539217 0.361215
vt 0.559582 0.382498
vt 0.517988 0.377693
vt 0.498975 0.387669
vt 0.521603 0.411317
vt 0.408961 0.197675
vt 0.388774 0.205775
vt 0.363003 0.213898
vt 0.329357 0.194010
vt 0.032330 0.542288
vt 0.054162 0.557136
vt 0.078805 0.566965
vt 0.091802 0.586585
vt 0.736293 0.621185
vt 0.757447 0.616119
vt 0.783168 0.607842
vt 0.814015 0.624986
vt 0.594737 0.377820
vt 0.581699 0.400780
vt 0.540009 0.400707
vt 0.563925 0.420476
vt 0.416949 0.230696
vt 0.396548 0.237911
vt 0.370192 0.243616
vt 0.338555 0.219866
vt 0.045194 0.521132
vt 0.065419 0.538625
vt 0.088884 0.550390
vt 0.099653 0.569141
vt 0.728746 0.602251
vt 0.749562 0.596339
vt 0.774363 0.585751
vt 0.806566 0.598572
vt 0.615618 0.391126
vt 0.605191 0.415749
vt 0.589328 0.436663
vt 0.546177 0.431630
vt 0.421291 0.263851
vt 0.400773 0.270178
vt 0.374100 0.273457
vt 0.344945 0.246283
vt 0.060234 0.502442
vt 0.078579 0.522271
vt 0.100668 0.535746
vt 0.109302 0.553274
vt 0.719366 0.584515
vt 0.739763 0.577811
vt 0.763420 0.565059
vt 0.796502 0.573326
vt 0.637363 0.401259
vt 0.629654 0.427149
vt 0.615781 0.448990
vt 0.572279 0.448263
vt 0.421912 0.296575
vt 0.401377 0.302025
vt 0.374659 0.302908
vt 0.348418 0.272808
vt 0.077193 0.486537
vt 0.093418 0.508354
vt 0.960374 1.009663
vt 0.955021 0.996413
vt 0.986628 1.004364
vt 0.708315 0.568281
vt 0.728219 0.560852
vt 0.750527 0.546121
vt 0.783996 0.549678
vt 0.659601 0.408046
vt 0.654671 0.434784
vt 0.924605 0.005942
vt 0.915790 0.026305
vt 0.898490 0.000000
vt 0.418801 0.328307
vt 0.398350 0.332907
vt 0.371859 0.331466
vt 0.346427 0.324372
vt 0.095780 0.473690
vt 0.109681 0.497113
vt 0.128517 0.513219
vt 0.950325 0.981054
vt 0.981503 0.991680
vt 0.695782 0.553828
vt 0.715127 0.545754
vt 0.735905 0.529259
vt 0.769261 0.528034
vt 0.681949 0.411370
vt 0.679813 0.438524
vt 0.642833 0.457246
vt 0.907916 0.049966
vt 0.889432 0.020924
vt 0.881341 0.045236
vt 0.874357 0.072519
vt 0.858230 0.049813
vt 0.391744 0.362294
vt 0.365750 0.358643
vt 0.115677 0.464120
vt 0.927101 0.993258
vt 0.922682 0.974046
vt 0.946368 0.963851
vt 0.977008 0.976978
vt 0.973220 0.960510
vt 1.000000 0.982121
vt 0.700709 0.532773
vt 0.719804 0.514762
vt 0.752551 0.508763
vt 0.704027 0.411175
vt 0.930833 0.062736
vt 0.924547 0.087291
vt 0.901119 0.076518
vt 0.868597 0.102308
vt 0.851432 0.076366
vt 0.381671 0.389685
vt 0.356434 0.383974
vt 0.340996 0.348529
vt 0.136543 0.457992
vt 0.127091 0.488739
vt 0.919163 0.953101
vt 0.943217 0.945097
vt 0.970204 0.942558
vt 0.996043 0.964918
vt 0.685215 0.522133
vt 0.702500 0.502880
vt 0.734150 0.492196
vt 0.725457 0.407464
vt 0.704651 0.438305
vt 0.919364 0.114101
vt 0.895513 0.105509
vt 0.864161 0.134092
vt 0.845827 0.105356
vt 0.368304 0.414611
vt 0.344073 0.407025
vt 0.332716 0.371045
vt 0.158023 0.455409
vt 0.145350 0.483377
vt 0.916605 0.930783
vt 0.940927 0.925113
vt 0.968011 0.923428
vt 0.992892 0.946164
vt 0.668907 0.514016
vt 0.684288 0.493814
vt 0.714373 0.478615
vt 0.745870 0.400301
vt 0.728759 0.434130
vt 0.915371 0.142706
vt 0.891197 0.136441
vt 0.861125 0.167327
vt 0.841510 0.136288
vt 0.351871 0.436644
vt 0.328876 0.427401
vt 0.321728 0.391535
vt 0.179748 0.456417
vt 0.164144 0.481118
vt 0.915052 0.907473
vt 0.939536 0.904241
vt 0.966680 0.903448
vt 0.990602 0.926180
vt 0.652067 0.508559
vt 0.665480 0.487720
vt 0.693560 0.468254
vt 0.764920 0.389808
vt 0.751725 0.426071
vt 0.912639 0.172618
vt 0.888242 0.168785
vt 0.859541 0.201445
vt 0.838556 0.168633
vt 0.332654 0.455409
vt 0.311105 0.444754
vt 0.308220 0.409647
vt 0.292423 0.425072
vt 0.295436 0.388140
vt 0.914529 0.883571
vt 0.939068 0.882838
vt 0.966232 0.882960
vt 0.989211 0.905308
vt 0.728171 0.355334
vt 0.741772 0.344644
vt 0.748455 0.368237
vt 0.763644 0.356299
vt 0.782279 0.376164
vt 0.773155 0.414267
vt 0.911213 0.203324
vt 0.886700 0.201989
vt 0.859435 0.235861
vt 0.837014 0.201837
vt 0.440157 0.461290
vt 0.466599 0.468794
vt 0.427519 0.482609
vt 0.451972 0.489548
vt 0.421912 0.509263
vt 0.274608 0.437546
vt 0.281614 0.401637
vt 0.915046 0.859484
vt 0.939531 0.861270
vt 0.966675 0.862315
vt 0.988743 0.883905
vt 0.753815 0.331670
vt 0.777093 0.341809
vt 0.421492 0.480816
vt 0.399744 0.480809
vt 0.416914 0.455418
vt 0.911118 0.234299
vt 0.886597 0.235484
vt 0.860811 0.269989
vt 0.836911 0.235331
vt 0.492366 0.480458
vt 0.475801 0.500335
vt 0.443648 0.515432
vt 0.255079 0.446856
vt 0.266026 0.412552
vt 0.916595 0.835626
vt 0.940917 0.839907
vt 0.968002 0.841865
vt 0.989206 0.862337
vt 0.764095 0.316631
vt 0.788574 0.325014
vt 0.797650 0.359604
vt 0.378406 0.484377
vt 0.392447 0.455409
vt 0.912356 0.265013
vt 0.887935 0.268696
vt 0.863643 0.303242
vt 0.838249 0.268544
vt 0.517016 0.496082
vt 0.498597 0.514783
vt 0.464829 0.525020
vt 0.234171 0.452842
vt 0.248938 0.420698
vt 0.919148 0.812405
vt 0.943203 0.819114
vt 0.970191 0.821961
vt 0.990592 0.840974
vt 0.772436 0.299787
vt 0.797889 0.306203
vt 0.810771 0.340410
vt 0.357843 0.491458
vt 0.368442 0.459423
vt 0.914904 0.294941
vt 0.890692 0.301058
vt 0.867883 0.335052
vt 0.841005 0.300906
vt 0.540127 0.515398
vt 0.519970 0.532647
vt 0.485092 0.537863
vt 0.212241 0.455402
vt 0.230643 0.425936
vt 0.922662 0.790217
vt 0.946350 0.799247
vt 0.973203 0.802943
vt 0.992878 0.820181
vt 0.778695 0.281425
vt 0.804879 0.285696
vt 0.821416 0.318911
vt 0.338408 0.501933
vt 0.345309 0.467390
vt 0.918721 0.323571
vt 0.894818 0.332016
vt 0.873460 0.364875
vt 0.845132 0.331864
vt 0.561305 0.538077
vt 0.539554 0.553620
vt 0.504090 0.553742
vt 0.189665 0.454492
vt 0.211455 0.428176
vt 0.927077 0.769443
vt 0.950303 0.780645
vt 0.976987 0.785136
vt 0.996025 0.800314
vt 0.782765 0.261859
vt 0.809424 0.263845
vt 0.829405 0.295475
vt 0.320432 0.515622
vt 0.323443 0.479174
vt 0.923740 0.350411
vt 0.900246 0.361040
vt 0.580922 0.529920
vt 0.600323 0.556280
vt 0.580187 0.563730
vt 0.557016 0.577343
vt 0.521499 0.572384
vt 0.166828 0.450128
vt 0.191701 0.427379
vt 0.171719 0.423561
vt 0.201064 0.403778
vt 0.954995 0.763628
vt 0.761765 0.265077
vt 0.763498 0.245516
vt 0.784576 0.241424
vt 0.811447 0.241024
vt 0.834599 0.270503
vt 0.304223 0.532290
vt 0.303220 0.494574
vt 0.284985 0.513326
vt 0.282018 0.480604
vt 0.906880 0.387634
vt 0.617034 0.585244
vt 0.596449 0.591918
vt 0.572055 0.603411
vt 0.537020 0.593472
vt 0.144122 0.442384
vt 0.151851 0.416784
vt 0.165381 0.394291
vt 0.960346 0.748485
vt 0.981478 0.768846
vt 0.763041 0.225458
vt 0.784098 0.220471
vt 0.810913 0.217623
vt 0.836911 0.244421
vt 0.290058 0.551652
vt 0.269050 0.535108
vt 0.262300 0.500881
vt 0.914609 0.411342
vt 0.880277 0.392201
vt 0.630766 0.616318
vt 0.609814 0.622160
vt 0.584414 0.631378
vt 0.550388 0.616643
vt 0.121936 0.431392
vt 0.132437 0.407167
vt 0.966264 0.735477
vt 0.986600 0.754351
vt 0.760399 0.205246
vt 0.781338 0.199356
vt 0.807831 0.194042
vt 0.832778 0.190728
vt 0.278181 0.573378
vt 0.255688 0.559549
vt 0.245069 0.524436
vt 0.923299 0.431759
vt 0.888218 0.416562
vt 0.641287 0.648969
vt 0.620052 0.653936
vt 0.593883 0.660764
vt 0.561374 0.641502
vt 0.100647 0.417342
vt 0.113810 0.394873
vt 0.147998 0.385680
vt 0.131319 0.374671
vt 0.164448 0.372688
vt 0.755618 0.185226
vt 0.776344 0.178442
vt 0.802253 0.170686
vt 0.826404 0.164035
vt 0.268793 0.597094
vt 0.245127 0.586231
vt 0.230620 0.550865
vt 0.219200 0.579716
vt 0.209693 0.549651
vt 0.648415 0.682640
vt 0.626989 0.686705
vt 0.600298 0.691068
vt 0.575493 0.694560
vt 0.080622 0.400473
vt 0.096288 0.380112
vt 0.115629 0.361454
vt 0.133463 0.349498
vt 0.748781 0.165741
vt 0.769201 0.158086
vt 0.794276 0.147953
vt 0.262057 0.622397
vt 0.237548 0.614696
vt 0.211004 0.610497
vt 0.197959 0.579297
vt 0.652029 0.716754
vt 0.630506 0.719905
vt 0.603550 0.721770
vt 0.062202 0.381073
vt 0.080170 0.363138
vt 0.101197 0.346255
vt 0.740003 0.147123
vt 0.760032 0.138638
vt 0.784036 0.126232
vt 0.805584 0.113231
vt 0.258086 0.648852
vt 0.233081 0.644457
vt 0.206174 0.642679
vt 0.189538 0.610924
vt 0.652067 0.750727
vt 0.630543 0.752967
vt 0.603584 0.752346
vt 0.578414 0.749030
vt 0.045703 0.359476
vt 0.065734 0.344240
vt 0.088270 0.329334
vt 0.119648 0.334949
vt 0.729436 0.129692
vt 0.748993 0.120428
vt 0.771708 0.105896
vt 0.256949 0.676006
vt 0.231802 0.675006
vt 0.204791 0.675713
vt 0.184574 0.643993
vt 0.648528 0.783978
vt 0.627099 0.785327
vt 0.600399 0.782272
vt 0.031407 0.336050
vt 0.053225 0.323743
vt 0.077069 0.310980
vt 0.107274 0.318751
vt 0.717260 0.113746
vt 0.736273 0.103770
vt 0.757503 0.087292
vt 0.791495 0.089990
vt 0.258666 0.703396
vt 0.233734 0.705820
vt 0.206880 0.709033
vt 0.183153 0.677936
vt 0.641473 0.815939
vt 0.620233 0.816431
vt 0.594050 0.811036
vt 0.575583 0.775630
vt 0.019558 0.311196
vt 0.042857 0.301995
vt 0.067786 0.291507
vt 0.096552 0.301181
vt 0.703684 0.099557
vt 0.722090 0.088948
vt 0.741663 0.070739
vt 0.775260 0.068728
vt 0.263207 0.730553
vt 0.238842 0.736371
vt 0.212403 0.742069
vt 0.185299 0.712174
vt 0.631022 0.846061
vt 0.610063 0.845747
vt 0.584644 0.838146
vt 0.569939 0.801199
vt 0.010360 0.285340
vt 0.034809 0.279371
vt 0.060580 0.271248
vt 0.087665 0.282541
vt 0.688939 0.087369
vt 0.706687 0.076215
vt 0.724461 0.056519
vt 0.757158 0.049810
vt 0.270493 0.757011
vt 0.247040 0.766137
vt 0.221268 0.774256
vt 0.190975 0.746120
vt 0.617355 0.873830
vt 0.596762 0.872772
vt 0.572344 0.863139
vt 0.550645 0.847512
vt 0.003970 0.258923
vt 0.029217 0.256257
vt 0.055573 0.250551
vt 0.080767 0.263148
vt 0.673278 0.077390
vt 0.690327 0.065790
vt 0.706190 0.044876
vt 0.737498 0.033559
vt 0.280402 0.782319
vt 0.258187 0.794609
vt 0.233322 0.805043
vt 0.200084 0.779193
vt 0.600705 0.898771
vt 0.580558 0.897044
vt 0.557359 0.885585
vt 0.000497 0.232399
vt 0.026178 0.233048
vt 0.052851 0.229769
vt 0.075974 0.243336
vt 0.656969 0.069790
vt 0.673289 0.057851
vt 0.687163 0.036010
vt 0.716617 0.020253
vt 0.292763 0.806043
vt 0.272093 0.821298
vt 0.248359 0.833904
vt 0.227920 0.840483
vt 0.852950 0.461290
vt 0.862008 0.482214
vt 0.826835 0.467232
vt 0.561728 0.918149
vt 0.539946 0.905103
vt 0.537325 0.867465
vt 0.000000 0.206220
vt 0.025744 0.210141
vt 0.052462 0.209258
vt 0.073369 0.223442
vt 0.927901 0.730177
vt 0.933026 0.717493
vt 0.954155 0.735477
vt 0.655867 0.052533
vt 0.667705 0.030072
vt 0.694872 0.010120
vt 0.307364 0.827778
vt 0.288519 0.845749
vt 0.266121 0.860344
vt 0.870099 0.506526
vt 0.843524 0.511256
vt 0.540595 0.935725
vt 0.520403 0.921356
vt 0.521847 0.884813
vt 0.002488 0.180834
vt 0.027921 0.187929
vt 0.054412 0.189369
vt 0.072997 0.203808
vt 0.937521 0.702791
vt 0.959508 0.722226
vt 0.638356 0.049929
vt 0.648150 0.027163
vt 0.672635 0.003333
vt 0.323956 0.847151
vt 0.307185 0.867544
vt 0.286306 0.883911
vt 0.246172 0.867651
vt 0.877083 0.533809
vt 0.850321 0.537808
vt 0.820607 0.524026
vt 0.499064 0.934069
vt 0.504475 0.899261
vt 0.007919 0.156677
vt 0.032673 0.166791
vt 0.914529 0.707935
vt 0.918486 0.690731
vt 0.941309 0.686323
vt 0.964204 0.706868
vt 0.968161 0.689664
vt 0.987428 0.719072
vt 0.628832 0.027333
vt 0.650286 0.000009
vt 0.342255 0.863830
vt 0.327772 0.886309
vt 0.893210 0.511103
vt 0.900008 0.537656
vt 0.882843 0.563598
vt 0.855927 0.566799
vt 0.826893 0.548581
vt 0.476294 0.943022
vt 0.485507 0.910561
vt 0.016199 0.134161
vt 0.039918 0.147090
vt 0.058667 0.170442
vt 0.921637 0.671977
vt 0.944325 0.668371
vt 0.971312 0.670910
vt 0.991847 0.699859
vt 0.610081 0.030580
vt 0.628208 0.000204
vt 0.361948 0.877532
vt 0.349926 0.901723
vt 0.308567 0.904202
vt 0.905613 0.566646
vt 0.887279 0.595382
vt 0.860243 0.597731
vt 0.832076 0.575391
vt 0.452483 0.948063
vt 0.465267 0.918519
vt 0.027187 0.113671
vt 0.049533 0.129161
vt 0.065154 0.152801
vt 0.923927 0.651993
vt 0.946518 0.649241
vt 0.973602 0.650926
vt 0.995366 0.678914
vt 0.592219 0.036848
vt 0.606779 0.003915
vt 0.382698 0.888020
vt 0.373269 0.913522
vt 0.332523 0.920870
vt 0.909930 0.597578
vt 0.890315 0.628617
vt 0.863198 0.630075
vt 0.836069 0.603996
vt 0.428039 0.949105
vt 0.444102 0.923000
vt 0.040695 0.095559
vt 0.061352 0.113313
vt 0.073763 0.136747
vt 0.925318 0.631121
vt 0.947849 0.629261
vt 0.974993 0.630054
vt 0.997924 0.656596
vt 0.575551 0.046030
vt 0.586365 0.011078
vt 0.404149 0.895117
vt 0.397402 0.921506
vt 0.357765 0.933630
vt 0.912884 0.629923
vt 0.891899 0.662734
vt 0.864740 0.663279
vt 0.838801 0.633908
vt 0.027911 0.074052
vt 0.045683 0.056699
vt 0.056492 0.080134
vt 0.075174 0.099816
vt 0.170216 0.847439
vt 0.151317 0.843431
vt 0.182721 0.826908
vt 0.925786 0.609718
vt 0.948297 0.608773
vt 0.975461 0.608651
vt 0.999477 0.633287
vt 0.560362 0.057968
vt 0.567315 0.021571
vt 0.549957 0.035214
vt 0.550850 0.000000
vt 0.421912 0.925536
vt 0.383861 0.942262
vt 0.914426 0.663126
vt 0.892004 0.697151
vt 0.864843 0.696774
vt 0.840227 0.664614
vt 0.065725 0.042665
vt 0.143364 0.869481
vt 0.122261 0.861406
vt 0.132853 0.836364
vt 0.165799 0.823319
vt 0.925323 0.588151
vt 0.947854 0.588128
vt 0.974998 0.587084
vt 0.999483 0.585298
vt 0.652529 0.850319
vt 0.671559 0.850209
vt 0.657264 0.875689
vt 0.534585 0.051775
vt 0.531322 0.015349
vt 0.514029 0.033979
vt 0.509450 0.003694
vt 0.914529 0.696621
vt 0.890630 0.731278
vt 0.863505 0.729986
vt 0.840322 0.695589
vt 0.087694 0.032192
vt 0.074307 0.067660
vt 0.102016 0.849974
vt 0.115138 0.826362
vt 0.133404 0.808035
vt 0.923937 0.566788
vt 0.946527 0.567678
vt 0.973612 0.565721
vt 0.690210 0.846973
vt 0.679012 0.875563
vt 0.521465 0.070968
vt 0.499268 0.055572
vt 0.490751 0.023840
vt 0.913191 0.729834
vt 0.887798 0.764531
vt 0.860749 0.762348
vt 0.839084 0.726303
vt 0.111216 0.025457
vt 0.093836 0.058350
vt 0.082975 0.835381
vt 0.098477 0.813593
vt 0.921651 0.545995
vt 0.944338 0.547774
vt 0.971326 0.544928
vt 0.997934 0.561440
vt 0.708164 0.840666
vt 0.700328 0.871864
vt 0.510819 0.092467
vt 0.487292 0.079758
vt 0.474789 0.047189
vt 0.910435 0.762196
vt 0.883557 0.796342
vt 0.856622 0.793306
vt 0.836536 0.756231
vt 0.135887 0.022577
vt 0.114744 0.052364
vt 0.065462 0.817877
vt 0.083153 0.798277
vt 0.118485 0.796602
vt 0.918504 0.526127
vt 0.941326 0.528756
vt 0.968179 0.525060
vt 0.995381 0.538218
vt 0.725114 0.831396
vt 0.720847 0.864656
vt 0.502831 0.115904
vt 0.478305 0.106124
vt 0.461839 0.073343
vt 0.906308 0.793154
vt 0.877980 0.826165
vt 0.851194 0.822330
vt 0.832719 0.784861
vt 0.161285 0.023601
vt 0.136674 0.049804
vt 0.049779 0.797761
vt 0.069431 0.780676
vt 0.104764 0.782887
vt 0.914551 0.507526
vt 0.937542 0.510949
vt 0.964226 0.506459
vt 0.991867 0.516030
vt 0.740769 0.819322
vt 0.740218 0.854062
vt 0.497636 0.140876
vt 0.472461 0.134218
vt 0.452121 0.101853
vt 0.900881 0.822178
vt 0.871163 0.853491
vt 0.170648 0.000000
vt 0.198429 0.005309
vt 0.186976 0.028511
vt 0.159250 0.050714
vt 0.036193 0.775378
vt 0.057543 0.761090
vt 0.092476 0.767127
vt 0.081832 0.749590
vt 0.112740 0.760746
vt 0.933051 0.494659
vt 0.719482 0.805483
vt 0.732101 0.792346
vt 0.754862 0.804651
vt 0.774216 0.823497
vt 0.495324 0.166957
vt 0.469860 0.163560
vt 0.445801 0.132232
vt 0.442989 0.163960
vt 0.424801 0.135450
vt 0.863222 0.877852
vt 0.844560 0.848924
vt 0.226051 0.014730
vt 0.212521 0.037223
vt 0.204792 0.062822
vt 0.024937 0.751111
vt 0.047694 0.739856
vt 0.073012 0.730576
vt 0.102551 0.743958
vt 0.927929 0.480164
vt 0.959534 0.489441
vt 0.743105 0.777108
vt 0.767152 0.787633
vt 0.495935 0.193701
vt 0.470547 0.193647
vt 0.443732 0.196495
vt 0.421912 0.168052
vt 0.854293 0.898831
vt 0.836831 0.872632
vt 0.253042 0.028101
vt 0.237481 0.049589
vt 0.016203 0.725374
vt 0.040051 0.717336
vt 0.066169 0.710412
vt 0.094109 0.725757
vt 0.922264 0.467712
vt 0.954183 0.474298
vt 0.752307 0.760029
vt 0.777428 0.768560
vt 0.788261 0.804048
vt 0.499457 0.220651
vt 0.474510 0.223965
vt 0.448017 0.229279
vt 0.422675 0.201482
vt 0.269492 0.015109
vt 0.296102 0.032672
vt 0.278939 0.045194
vt 0.261430 0.065395
vt 0.226979 0.073814
vt 0.010141 0.698608
vt 0.034747 0.693916
vt 0.061420 0.689441
vt 0.087558 0.706455
vt 0.731373 0.758943
vt 0.738304 0.741113
vt 0.759548 0.741402
vt 0.785514 0.747758
vt 0.800005 0.782250
vt 0.505831 0.247344
vt 0.481680 0.253995
vt 0.455771 0.261751
vt 0.427078 0.235169
vt 0.321134 0.053759
vt 0.303300 0.065715
vt 0.283959 0.084373
vt 0.248268 0.087864
vt 0.006854 0.671271
vt 0.031871 0.669997
vt 0.058845 0.668023
vt 0.083012 0.686380
vt 0.743240 0.722106
vt 0.764704 0.721546
vt 0.791273 0.725582
vt 0.809247 0.758476
vt 0.514948 0.273325
vt 0.491936 0.283223
vt 0.466861 0.293357
vt 0.435045 0.268535
vt 0.344159 0.078008
vt 0.325708 0.089314
vt 0.304681 0.106197
vt 0.268293 0.104733
vt 0.006399 0.643831
vt 0.031473 0.645987
vt 0.058488 0.646523
vt 0.080547 0.665878
vt 0.746097 0.702247
vt 0.767688 0.700800
vt 0.794605 0.702414
vt 0.815828 0.733133
vt 0.526651 0.298148
vt 0.505103 0.311149
vt 0.481098 0.323555
vt 0.446441 0.301011
vt 0.364783 0.105005
vt 0.345779 0.115588
vt 0.323243 0.130494
vt 0.286713 0.124133
vt 0.008784 0.616757
vt 0.033560 0.622297
vt 0.060357 0.625311
vt 0.080206 0.645298
vt 0.746824 0.681876
vt 0.768448 0.679520
vt 0.795454 0.678648
vt 0.819637 0.706654
vt 0.540740 0.321389
vt 0.520953 0.337296
vt 0.498238 0.351828
vt 0.461070 0.332040
vt 0.303212 0.145730
vt 0.081994 0.624993
vt 0.820607 0.679493
vt 0.478682 0.361092
vt 0.120582 0.539256
vt 0.599461 0.460929
vt 0.348915 0.298987
vt 0.113955 0.523284
vt 0.670020 0.461290
vt 0.183153 0.481999
vt 0.672065 0.461290
vt 0.792684 0.398918
vt 0.850559 0.360888
vt 0.999978 0.781712
vt 0.183171 0.400359
vt 0.836300 0.217677
vt 0.992265 0.741898
vt 0.897147 0.437541
vt 0.569790 0.667623
vt 0.148482 0.362150
vt 0.817288 0.138054
vt 0.578384 0.721851
vt 0.561579 0.825296
vt 0.212470 0.810827
vt 0.835650 0.487595
vt 0.074863 0.184769
vt 0.266912 0.891867
vt 0.422373 0.923926
vt 0.084347 0.122557
vt 1.000000 0.609384
vt 0.410364 0.946620
vt 0.149266 0.816992
vt 0.827700 0.811701
vt 0.987452 0.495256
vt 0.758110 0.840264
vt 0.182086 0.055078
vt 0.828141 0.893050
vt 0.948265 0.461290
vn 0.258302 -0.963996 -0.063184
vn 0.706349 -0.706348 -0.046296
vn 0.965787 -0.258782 -0.016961
vn 0.965787 0.258782 0.016961
vn 0.706348 0.706349 0.046297
vn 0.258302 0.963996 0.063184
vn -0.258302 0.963996 0.063183
vn -0.706349 0.706348 0.046297
vn -0.965787 0.258782 0.016962
vn -0.965787 -0.258782 -0.016961
vn -0.706349 -0.706349 -0.046296
vn -0.258302 -0.963996 -0.063184
vn 0.258302 -0.947502 -0.188470
vn 0.706349 -0.694263 -0.138097
vn 0.965787 -0.254354 -0.050594
vn 0.965787 0.254354 0.050594
vn 0.706348 0.694263 0.138097
vn 0.258302 0.947502 0.188469
vn -0.258302 0.947502 0.188469
vn -0.706349 0.694263 0.138097
vn -0.965787 0.254354 0.050594
vn -0.965787 -0.254354 -0.050594
vn -0.706348 -0.694263 -0.138097
vn -0.258302 -0.947502 -0.188469
vn 0.258301 -0.914795 -0.310532
vn 0.706349 -0.670298 -0.227536
vn 0.965787 -0.245574 -0.083361
vn 0.965787 0.245574 0.083361
vn 0.706348 0.670298 0.227535
vn 0.258302 0.914796 0.310531
vn -0.258302 0.914795 0.310531
vn -0.706349 0.670298 0.227535
vn -0.965787 0.245574 0.083361
vn -0.965787 -0.245574 -0.083361
vn -0.706349 -0.670298 -0.227536
vn -0.258302 -0.914795 -0.310531
vn 0.258301 -0.866437 -0.427279
vn 0.706349 -0.634864 -0.313081
vn 0.965787 -0.232592 -0.114702
vn 0.965787 0.232592 0.114702
vn 0.706348 0.634864 0.313080
vn 0.258302 0.866436 0.427280
vn -0.258302 0.866437 0.427280
vn -0.706349 0.634864 0.313081
vn -0.965787 0.232592 0.114702
vn -0.965787 -0.232592 -0.114702
vn -0.706349 -0.634864 -0.313079
vn -0.258301 -0.866437 -0.427280
vn 0.258302 -0.803253 -0.536717
vn 0.706349 -0.588567 -0.393268
vn 0.965787 -0.215631 -0.144080
vn 0.965787 0.215631 0.144080
vn 0.706349 0.588568 0.393268
vn 0.258302 0.803253 0.536716
vn -0.258301 0.803253 0.536716
vn -0.706349 0.588567 0.393268
vn -0.965787 0.215631 0.144080
vn -0.965787 -0.215631 -0.144080
vn -0.706348 -0.588568 -0.393268
vn -0.258302 -0.803253 -0.536716
vn 0.258302 -0.726325 -0.636971
vn 0.706349 -0.532200 -0.466727
vn 0.965787 -0.194980 -0.170993
vn 0.965787 0.194980 0.170993
vn 0.706348 0.532200 0.466728
vn 0.258302 0.726325 0.636971
vn -0.258301 0.726325 0.636971
vn -0.706349 0.532200 0.466727
vn -0.965787 0.194980 0.170993
vn -0.965787 -0.194980 -0.170993
vn -0.706348 -0.532201 -0.466728
vn -0.258302 -0.726325 -0.636971
vn 0.258302 -0.636970 -0.726326
vn 0.706349 -0.466727 -0.532200
vn 0.965787 -0.170993 -0.194980
vn 0.965787 0.170993 0.194980
vn 0.706349 0.466728 0.532200
vn 0.258302 0.636971 0.726325
vn -0.258302 0.636971 0.726325
vn -0.706349 0.466727 0.532200
vn -0.965787 0.170993 0.194980
vn -0.965787 -0.170993 -0.194980
vn -0.706348 -0.466727 -0.532201
vn -0.258302 -0.636971 -0.726325
vn 0.258301 -0.536717 -0.803253
vn 0.706349 -0.393268 -0.588567
vn 0.965787 -0.144080 -0.215631
vn 0.965787 0.144080 0.215631
vn 0.706349 0.393268 0.588567
vn 0.258302 0.536716 0.803253
vn -0.258302 0.536717 0.803253
vn -0.706349 0.393268 0.588568
vn -0.965787 0.144080 0.215631
vn -0.965787 -0.144080 -0.215631
vn -0.706349 -0.393269 -0.588567
vn -0.258301 -0.536717 -0.803253
vn 0.258301 -0.427280 -0.866437
vn 0.706348 -0.313080 -0.634865
vn 0.965787 -0.114702 -0.232593
vn 0.965787 0.114702 0.232592
vn 0.706349 0.313081 0.634864
vn 0.258302 0.427279 0.866437
vn -0.258302 0.427279 0.866437
vn -0.706349 0.313080 0.634864
vn -0.965787 0.114702 0.232593
vn -0.965787 -0.114702 -0.232592
vn -0.706349 -0.313080 -0.634864
vn -0.258301 -0.427279 -0.866437
vn 0.258303 -0.310531 -0.914795
vn 0.706348 -0.227536 -0.670298
vn 0.965787 -0.083361 -0.245574
vn 0.965787 0.083361 0.245574
vn 0.706349 0.227536 0.670298
vn 0.258302 0.310531 0.914795
vn -0.258302 0.310531 0.914795
vn -0.706349 0.227535 0.670298
vn -0.965787 0.083361 0.245574
vn -0.965787 -0.083361 -0.245574
vn -0.706348 -0.227536 -0.670298
vn -0.258303 -0.310532 -0.914795
vn 0.258302 -0.188470 -0.947502
vn 0.706349 -0.138097 -0.694262
vn 0.965787 -0.050594 -0.254354
vn 0.965787 0.050594 0.254354
vn 0.706349 0.138098 0.694262
vn 0.258302 0.188470 0.947502
vn -0.258302 0.188470 0.947501
vn -0.706349 0.138097 0.694263
vn -0.965787 0.050594 0.254354
vn -0.965787 -0.050595 -0.254354
vn -0.706349 -0.138098 -0.694262
vn -0.258301 -0.188470 -0.947502
vn 0.258302 -0.063184 -0.963996
vn 0.706349 -0.046296 -0.706348
vn 0.965787 -0.016961 -0.258782
vn 0.965787 0.016962 0.258782
vn 0.706349 0.046297 0.706348
vn 0.258302 0.063184 0.963996
vn -0.258302 0.063183 0.963996
vn -0.706349 0.046297 0.706348
vn -0.965787 0.016961 0.258782
vn -0.965787 -0.016962 -0.258782
vn -0.706349 -0.046297 -0.706348
vn -0.258302 -0.063183 -0.963996
vn 0.258303 0.063184 -0.963996
vn 0.706349 0.046297 -0.706349
vn 0.965787 0.016962 -0.258782
vn 0.965787 -0.016961 0.258782
vn 0.706349 -0.046297 0.706348
vn 0.258302 -0.063184 0.963996
vn -0.258302 -0.063184 0.963996
vn -0.706349 -0.046297 0.706349
vn -0.965787 -0.016962 0.258782
vn -0.965787 0.016961 -0.258782
vn -0.706349 0.046297 -0.706348
vn -0.258303 0.063184 -0.963996
vn 0.258302 0.188470 -0.947501
vn 0.706349 0.138097 -0.694263
vn 0.965787 0.050594 -0.254354
vn 0.965787 -0.050594 0.254354
vn 0.706349 -0.138097 0.694263
vn 0.258302 -0.188470 0.947502
vn -0.258302 -0.188470 0.947502
vn -0.706349 -0.138098 0.694263
vn -0.965787 -0.050594 0.254354
vn -0.965787 0.050594 -0.254354
vn -0.706349 0.138097 -0.694263
vn -0.258302 0.188469 -0.947502
vn 0.258301 0.310532 -0.914795
vn 0.706349 0.227536 -0.670298
vn 0.965787 0.083361 -0.245574
vn 0.965787 -0.083361 0.245574
vn 0.706349 -0.227536 0.670297
vn 0.258302 -0.310531 0.914795
vn -0.258302 -0.310531 0.914796
vn -0.706349 -0.227536 0.670298
vn -0.965787 -0.083361 0.245574
vn -0.965787 0.083361 -0.245574
vn -0.706349 0.227535 -0.670298
vn -0.258302 0.310532 -0.914795
vn 0.258301 0.427279 -0.866437
vn 0.706349 0.313080 -0.634864
vn 0.965787 0.114702 -0.232593
vn 0.965787 -0.114702 0.232592
vn 0.706349 -0.313080 0.634864
vn 0.258302 -0.427279 0.866437
vn -0.258301 -0.427280 0.866437
vn -0.706348 -0.313080 0.634864
vn -0.965787 -0.114702 0.232593
vn -0.965787 0.114702 -0.232592
vn -0.706349 0.313080 -0.634864
vn -0.258301 0.427279 -0.866437
vn 0.258301 0.536717 -0.803253
vn 0.706349 0.393268 -0.588567
vn 0.965787 0.144080 -0.215631
vn 0.965787 -0.144080 0.215631
vn 0.706349 -0.393268 0.588568
vn 0.258302 -0.536716 0.803253
vn -0.258302 -0.536717 0.803253
vn -0.706349 -0.393268 0.588568
vn -0.965787 -0.144080 0.215631
vn -0.965787 0.144080 -0.215631
vn -0.706349 0.393268 -0.588567
vn -0.258301 0.536717 -0.803253
vn 0.258301 0.636971 -0.726325
vn 0.706349 0.466727 -0.532200
vn 0.965787 0.170993 -0.194980
vn 0.965787 -0.170992 0.194980
vn 0.706349 -0.466727 0.532200
vn 0.258302 -0.636971 0.726325
vn -0.258302 -0.636971 0.726325
vn -0.706349 -0.466728 0.532200
vn -0.965787 -0.170993 0.194980
vn -0.965787 0.170993 -0.194980
vn -0.706349 0.466727 -0.532200
vn -0.258301 0.636971 -0.726325
vn 0.258301 0.726325 -0.636971
vn 0.706349 0.532200 -0.466727
vn 0.965787 0.194980 -0.170993
vn 0.965787 -0.194980 0.170993
vn 0.706349 -0.532200 0.466727
vn 0.258302 -0.726325 0.636971
vn -0.258302 -0.726325 0.636971
vn -0.706348 -0.532201 0.466727
vn -0.965787 -0.194980 0.170993
vn -0.965787 0.194980 -0.170993
vn -0.706349 0.532200 -0.466727
vn -0.258301 0.726326 -0.636971
vn 0.258302 0.803253 -0.536717
vn 0.706348 0.588567 -0.393269
vn 0.965787 0.215631 -0.144080
vn 0.965787 -0.215631 0.144080
vn 0.706349 -0.588567 0.393268
vn 0.258302 -0.803253 0.536717
vn -0.258302 -0.803253 0.536717
vn -0.706349 -0.588567 0.393269
vn -0.965787 -0.215631 0.144080
vn -0.965787 0.215630 -0.144080
vn -0.706349 0.588567 -0.393268
vn -0.258302 0.803253 -0.536717
vn 0.258301 0.866437 -0.427280
vn 0.706348 0.634865 -0.313080
vn 0.965787 0.232593 -0.114702
vn 0.965787 -0.232592 0.114702
vn 0.706349 -0.634864 0.313080
vn 0.258302 -0.866437 0.427278
vn -0.258301 -0.866437 0.427278
vn -0.706348 -0.634865 0.313080
vn -0.965787 -0.232593 0.114702
vn -0.965787 0.232592 -0.114701
vn -0.706349 0.634864 -0.313080
vn -0.258301 0.866437 -0.427278
vn 0.258303 0.914795 -0.310531
vn 0.706348 0.670298 -0.227536
vn 0.965787 0.245574 -0.083362
vn 0.965787 -0.245574 0.083361
vn 0.706349 -0.670297 0.227536
vn 0.258302 -0.914795 0.310532
vn -0.258302 -0.914795 0.310532
vn -0.706348 -0.670298 0.227536
vn -0.965787 -0.245574 0.083361
vn -0.965787 0.245573 -0.083361
vn -0.706348 0.670298 -0.227536
vn -0.258303 0.914795 -0.310532
vn 0.258301 0.947502 -0.188470
vn 0.706348 0.694263 -0.138098
vn 0.965787 0.254354 -0.050594
vn 0.965787 -0.254354 0.050594
vn 0.706349 -0.694262 0.138097
vn 0.258302 -0.947502 0.188470
vn -0.258301 -0.947502 0.188470
vn -0.706348 -0.694263 0.138098
vn -0.965787 -0.254354 0.050594
vn -0.965787 0.254353 -0.050594
vn -0.706348 0.694263 -0.138097
vn -0.258302 0.947502 -0.188470
vn 0.258302 0.963996 -0.063184
vn 0.706349 0.706348 -0.046296
vn 0.965787 0.258782 -0.016962
vn 0.965787 -0.258782 0.016961
vn 0.706349 -0.706348 0.046296
vn 0.258302 -0.963996 0.063184
vn -0.258302 -0.963996 0.063183
vn -0.706348 -0.706349 0.046297
vn -0.965787 -0.258782 0.016962
vn -0.965787 0.258782 -0.016961
vn -0.706349 0.706348 -0.046297
vn -0.258302 0.963996 -0.063183
vn 0.258302 0.963996 0.063183
vn 0.706349 0.706349 0.046296
vn 0.706349 -0.706348 -0.046297
vn -0.258302 -0.963996 -0.063183
vn -0.706348 -0.706349 -0.046296
vn 0.258302 0.947502 0.188470
vn 0.706349 0.694262 0.138097
vn -0.258302 -0.947502 -0.188470
vn -0.706349 0.694262 0.138097
vn -0.258302 0.947502 0.188470
vn 0.258302 0.914795 0.310531
vn 0.706349 0.670298 0.227535
vn 0.965787 0.245574 0.083362
vn 0.706349 -0.670298 -0.227535
vn 0.258301 -0.914795 -0.310531
vn -0.258302 -0.914795 -0.310532
vn -0.706348 -0.670298 -0.227535
vn -0.706348 0.670298 0.227536
vn -0.258301 0.914795 0.310531
vn 0.258301 0.866437 0.427278
vn 0.706349 0.634864 0.313079
vn 0.965787 0.232593 0.114702
vn 0.706349 -0.634864 -0.313080
vn 0.258302 -0.866437 -0.427279
vn -0.258302 -0.866437 -0.427278
vn -0.706349 -0.634865 -0.313080
vn -0.965787 -0.232593 -0.114702
vn -0.706349 0.634864 0.313080
vn -0.258301 0.866437 0.427279
vn 0.258301 0.803253 0.536717
vn 0.706349 0.588567 0.393268
vn -0.258302 -0.803253 -0.536717
vn -0.706349 -0.588568 -0.393268
vn -0.258301 0.803253 0.536717
vn 0.258301 0.726325 0.636971
vn 0.706348 0.532201 0.466727
vn 0.258302 -0.726326 -0.636970
vn -0.258302 -0.726325 -0.636970
vn -0.706348 -0.532200 -0.466727
vn -0.706349 0.532200 0.466728
vn -0.258302 0.726326 0.636970
vn 0.258301 0.636971 0.726325
vn 0.258302 -0.636971 -0.726325
vn -0.706348 -0.466728 -0.532200
vn -0.258301 0.636971 0.726325
vn 0.258302 0.536717 0.803253
vn 0.706349 0.393269 0.588567
vn 0.258302 -0.536717 -0.803253
vn -0.706348 -0.393269 -0.588567
vn -0.965787 -0.144080 -0.215630
vn -0.706349 0.393268 0.588567
vn 0.258301 0.427279 0.866437
vn 0.706349 0.313080 0.634864
vn 0.706349 -0.313080 -0.634864
vn 0.258302 -0.427279 -0.866437
vn -0.258302 -0.427280 -0.866437
vn -0.965787 0.114702 0.232592
vn -0.258301 0.427279 0.866437
vn 0.258301 0.310532 0.914795
vn 0.706349 -0.227535 -0.670298
vn 0.258301 -0.310532 -0.914795
vn -0.258301 -0.310531 -0.914796
vn -0.706349 -0.227536 -0.670298
vn -0.258301 0.310531 0.914796
vn 0.258302 0.188470 0.947501
vn 0.706348 0.138098 0.694263
vn 0.706348 -0.138097 -0.694263
vn 0.258302 -0.188469 -0.947502
vn -0.258302 -0.188469 -0.947502
vn -0.706349 -0.138097 -0.694263
vn -0.965787 -0.050594 -0.254354
vn -0.706348 0.138098 0.694263
vn -0.258303 0.188470 0.947501
vn 0.258302 0.063185 0.963996
vn 0.706348 0.046297 0.706349
vn 0.965787 0.016962 0.258781
vn 0.706349 -0.046297 -0.706348
vn 0.258302 -0.063185 -0.963996
vn -0.258302 -0.063185 -0.963996
vn -0.706349 -0.046298 -0.706348
vn -0.706348 0.046297 0.706349
vn -0.258303 0.063184 0.963996
vn 0.258303 -0.063184 0.963996
vn 0.706349 -0.046296 0.706348
vn 0.965787 0.016961 -0.258782
vn 0.706349 0.046297 -0.706348
vn 0.258302 0.063184 -0.963996
vn -0.258302 0.063183 -0.963996
vn -0.258303 -0.063183 0.963996
vn 0.706349 -0.138097 0.694262
vn 0.706349 0.138098 -0.694263
vn 0.258301 0.188470 -0.947502
vn -0.706349 0.138097 -0.694262
vn -0.706349 -0.138097 0.694262
vn -0.258301 -0.188470 0.947502
vn 0.258302 -0.310531 0.914796
vn 0.706349 -0.227536 0.670298
vn 0.706349 0.227535 -0.670298
vn 0.258301 0.310531 -0.914796
vn -0.258301 0.310532 -0.914795
vn -0.965787 -0.083362 0.245574
vn -0.706348 -0.227536 0.670298
vn -0.258301 -0.310532 0.914795
vn 0.258303 -0.427280 0.866436
vn 0.706348 -0.313080 0.634865
vn 0.706349 0.313081 -0.634864
vn 0.258302 0.427279 -0.866437
vn -0.258302 0.427279 -0.866437
vn -0.706348 -0.313080 0.634865
vn -0.258303 -0.427278 0.866437
vn 0.258301 -0.536716 0.803254
vn 0.706349 -0.393268 0.588567
vn 0.706348 0.393268 -0.588568
vn 0.258302 0.536716 -0.803254
vn -0.258302 0.536716 -0.803253
vn -0.706349 0.393268 -0.588568
vn -0.258301 -0.536717 0.803253
vn 0.258302 -0.636970 0.726326
vn 0.706349 -0.466727 0.532201
vn 0.706348 0.466727 -0.532201
vn 0.258302 0.636970 -0.726326
vn -0.258302 0.636970 -0.726326
vn -0.706348 -0.466728 0.532201
vn -0.258302 -0.636970 0.726326
vn 0.258302 -0.726325 0.636970
vn 0.706348 0.532200 -0.466728
vn 0.258302 0.726326 -0.636970
vn -0.258302 0.726326 -0.636971
vn -0.706348 -0.532200 0.466728
vn 0.258302 -0.803253 0.536716
vn 0.706349 0.588568 -0.393268
vn 0.258301 0.803253 -0.536717
vn -0.258302 0.803253 -0.536716
vn -0.965787 0.215631 -0.144080
vn -0.706348 -0.588568 0.393269
vn -0.258302 -0.803253 0.536716
vn 0.258302 -0.866436 0.427280
vn 0.706348 0.634864 -0.313080
vn -0.258302 0.866437 -0.427279
vn -0.706349 0.634863 -0.313080
vn -0.965787 0.232592 -0.114702
vn -0.965787 -0.232592 0.114702
vn -0.258302 -0.866437 0.427279
vn 0.258303 -0.914795 0.310531
vn 0.706348 -0.670298 0.227536
vn 0.965787 0.245574 -0.083361
vn 0.258302 0.914796 -0.310531
vn -0.258302 0.914795 -0.310531
vn -0.706349 0.670298 -0.227535
vn -0.965787 0.245574 -0.083361
vn -0.258303 -0.914795 0.310532
vn 0.706348 -0.694263 0.138097
vn 0.965787 -0.254353 0.050594
vn 0.706348 0.694263 -0.138097
vn -0.706349 0.694262 -0.138097
vn -0.965787 0.254354 -0.050594
vn -0.706348 -0.694263 0.138097
vn 0.706349 -0.706349 0.046296
vn 0.965787 -0.258781 0.016961
vn 0.965787 0.258782 -0.016961
vn 0.706348 0.706349 -0.046297
vn -0.706349 0.706348 -0.046296
vn -0.965787 0.258781 -0.016961
vn -0.965787 -0.258782 0.016961
vn -0.706349 -0.706349 0.046296
vn 0.258302 -0.963996 -0.063183
vn 0.706349 -0.706349 -0.046296
vn 0.965787 -0.258781 -0.016962
vn 0.706348 0.706349 0.046296
vn -0.258302 0.963996 0.063184
vn -0.965787 0.258781 0.016961
vn 0.258301 -0.947502 -0.188469
vn 0.706349 -0.694262 -0.138098
vn -0.706349 0.694263 0.138098
vn -0.706349 -0.694263 -0.138097
vn 0.706349 -0.670297 -0.227536
vn -0.965787 -0.245575 -0.083361
vn -0.706349 -0.670298 -0.227535
vn -0.258301 -0.914795 -0.310532
vn 0.258302 -0.866436 -0.427280
vn 0.706349 0.634864 0.313081
vn 0.258302 0.866437 0.427279
vn -0.258302 0.866436 0.427280
vn -0.706348 -0.634864 -0.313081
vn -0.258302 -0.866437 -0.427279
vn 0.706349 -0.532200 -0.466728
vn 0.706349 0.532200 0.466727
vn -0.258302 0.726325 0.636971
vn -0.706348 -0.532201 -0.466727
vn 0.258301 -0.636971 -0.726326
vn 0.706348 0.466728 0.532200
vn -0.706349 -0.466727 -0.532200
vn -0.258301 -0.636970 -0.726326
vn 0.706349 0.393268 0.588568
vn -0.258302 0.536716 0.803253
vn 0.258303 -0.427278 -0.866437
vn 0.258302 0.427280 0.866437
vn -0.706348 -0.313080 -0.634865
vn -0.258303 -0.427280 -0.866436
vn 0.258302 -0.310532 -0.914795
vn 0.965787 -0.083361 -0.245575
vn -0.706349 -0.227536 -0.670297
vn -0.258302 -0.310531 -0.914795
vn 0.258301 0.188470 0.947502
vn -0.258302 0.188470 0.947502
vn 0.258303 -0.063183 -0.963996
vn 0.706349 -0.046297 -0.706349
vn 0.258302 0.063183 0.963996
vn -0.258302 0.063184 0.963996
vn -0.706349 0.046296 0.706349
vn -0.258303 -0.063184 -0.963996
vn 0.965787 -0.016962 0.258781
vn 0.706349 -0.046297 0.706349
vn -0.258302 0.063184 -0.963996
vn 0.258301 0.188469 -0.947502
vn -0.706349 -0.138097 0.694263
vn -0.258302 0.188470 -0.947502
vn 0.706348 0.227535 -0.670298
vn 0.706349 -0.227535 0.670298
vn -0.258301 -0.310531 0.914795
vn -0.706349 0.227536 -0.670298
vn 0.965787 0.114702 -0.232592
vn -0.258302 -0.427279 0.866437
vn -0.706349 -0.313080 0.634864
vn -0.965787 0.114701 -0.232592
vn 0.258302 0.536717 -0.803253
vn 0.706349 0.393269 -0.588567
vn 0.258302 -0.536717 0.803253
vn -0.258302 0.536717 -0.803253
vn 0.706349 0.466728 -0.532200
vn 0.965787 -0.170993 0.194980
vn 0.706349 -0.466728 0.532200
vn -0.706348 -0.466728 0.532200
vn -0.258302 -0.726326 0.636970
vn -0.706349 -0.532200 0.466727
vn -0.258302 0.726325 -0.636971
vn -0.258301 -0.803253 0.536717
vn -0.706348 -0.588568 0.393268
vn -0.258301 0.803253 -0.536717
vn 0.258303 0.866437 -0.427278
vn -0.706348 0.634865 -0.313080
vn -0.258303 0.866436 -0.427279
vn 0.258301 0.914795 -0.310532
vn 0.258302 -0.914795 0.310533
vn -0.258301 -0.914795 0.310532
vn 0.706349 0.694263 -0.138097
vn 0.706349 -0.694263 0.138097
vn -0.258302 -0.947502 0.188470
vn 0.258302 0.963996 -0.063183
vn 0.706349 0.706349 -0.046297
vn 0.258302 -0.963996 0.063183
vn -0.258302 -0.963996 0.063184
vn 0.706349 0.706348 0.046297
vn -0.706349 0.706348 0.046296
vn 0.706349 -0.694262 -0.138097
vn -0.965787 0.254353 0.050594
vn -0.706348 0.694263 0.138098
vn -0.258301 0.947502 0.188470
vn 0.258301 0.914796 0.310531
vn 0.706348 0.670298 0.227536
vn 0.706349 -0.670297 -0.227535
vn 0.258302 -0.914795 -0.310532
vn -0.965787 0.245574 0.083362
vn -0.706349 0.670297 0.227536
vn -0.258301 0.914795 0.310532
vn -0.965787 -0.232593 -0.114701
vn -0.706349 0.634864 0.313079
vn -0.258301 0.866437 0.427278
vn 0.258302 0.803253 0.536717
vn 0.706348 0.588568 0.393268
vn -0.706349 0.588567 0.393269
vn -0.258302 0.803253 0.536717
vn 0.258302 0.726326 0.636970
vn 0.706349 -0.466728 -0.532200
vn -0.965787 -0.170993 -0.194979
vn 0.258301 0.536717 0.803253
vn -0.258302 -0.536717 -0.803253
vn -0.258301 0.536717 0.803253
vn 0.258301 -0.427279 -0.866437
vn 0.706348 0.227536 0.670298
vn 0.258302 -0.310531 -0.914795
vn -0.258302 -0.310532 -0.914795
vn -0.706348 0.227535 0.670298
vn -0.258303 0.310532 0.914795
vn 0.706349 -0.138097 -0.694263
vn -0.706349 -0.138098 -0.694263
vn -0.706348 0.138097 0.694263
vn 0.258303 0.063184 0.963996
vn -0.706349 0.046297 0.706349
vn -0.258303 0.063185 0.963996
vn 0.258302 -0.063183 0.963996
vn 0.258302 0.063183 -0.963996
vn -0.706349 -0.046296 0.706348
vn 0.706348 -0.138097 0.694263
vn 0.965787 0.050595 -0.254354
vn -0.258301 0.188470 -0.947502
vn -0.706348 -0.138098 0.694263
vn 0.258303 -0.310532 0.914795
vn 0.706348 -0.227536 0.670298
vn 0.258302 0.310532 -0.914795
vn -0.258302 0.310531 -0.914795
vn -0.258303 -0.310531 0.914795
vn 0.258301 -0.427278 0.866437
vn 0.965787 -0.114701 0.232592
vn 0.706348 0.313080 -0.634864
vn 0.258302 0.427280 -0.866437
vn 0.965787 -0.144079 0.215631
vn 0.258302 0.536716 -0.803253
vn -0.706348 -0.393268 0.588568
vn -0.258302 -0.536716 0.803254
vn 0.258301 0.636970 -0.726326
vn -0.258302 0.636971 -0.726326
vn -0.965787 0.170992 -0.194980
vn -0.706348 -0.466727 0.532201
vn 0.258301 0.726326 -0.636971
vn -0.706348 -0.532201 0.466728
vn -0.258302 -0.726325 0.636970
vn 0.706348 0.588568 -0.393268
vn 0.258301 0.803253 -0.536716
vn 0.258303 -0.866436 0.427279
vn 0.706348 -0.634864 0.313081
vn 0.706348 0.634864 -0.313081
vn 0.258302 0.866437 -0.427279
vn -0.258302 0.866436 -0.427280
vn -0.706348 -0.634865 0.313081
vn -0.258303 -0.866436 0.427280
vn 0.706348 0.670298 -0.227535
vn 0.258301 0.914795 -0.310531
vn -0.258302 0.914796 -0.310531
vn -0.258301 -0.914796 0.310531
vn 0.258302 0.947502 -0.188470
vn -0.706349 0.694263 -0.138097
vn -0.706349 -0.694263 0.138098
vn -0.258302 0.963996 -0.063184
s off
f 1/1/1 13/2/1 2/3/1
f 2/3/2 14/4/2 3/5/2
f 3/5/3 15/6/3 4/7/3
f 4/8/4 16/9/4 5/10/4
f 5/10/5 17/11/5 6/12/5
f 6/12/6 18/13/6 7/14/6
f 7/15/7 19/16/7 8/17/7
f 8/17/8 20/18/8 9/19/8
f 9/19/9 21/20/9 10/21/9
f 10/22/10 22/23/10 11/24/10
f 11/24/11 23/25/11 12/26/11
f 1/27/12 12/26/12 13/28/12
f 13/2/13 25/29/13 14/4/13
f 14/4/14 26/30/14 15/6/14
f 15/6/15 27/31/15 16/32/15
f 16/9/16 28/33/16 17/11/16
f 17/11/17 29/34/17 18/13/17
f 18/13/18 30/35/18 19/36/18
f 19/16/19 31/37/19 20/18/19
f 20/18/20 32/38/20 21/20/20
f 21/20/21 33/39/21 22/40/21
f 22/23/22 34/41/22 23/25/22
f 23/25/23 35/42/23 24/43/23
f 24/43/24 36/44/24 13/28/24
f 25/29/25 37/45/25 26/30/25
f 26/30/26 38/46/26 27/31/26
f 27/31/27 39/47/27 28/48/27
f 28/33/28 40/49/28 29/34/28
f 29/34/29 41/50/29 30/35/29
f 30/35/30 42/51/30 31/52/30
f 31/37/31 43/53/31 32/38/31
f 32/38/32 44/54/32 33/39/32
f 33/39/33 45/55/33 34/56/33
f 34/41/34 46/57/34 35/42/34
f 35/42/35 47/58/35 36/44/35
f 36/44/36 48/59/36 25/60/36
f 37/45/37 49/61/37 38/46/37
f 38/46/38 50/62/38 39/47/38
f 39/47/39 51/63/39 40/64/39
f 40/49/40 52/65/40 41/50/40
f 41/50/41 53/66/41 42/51/41
f 42/51/42 54/67/42 43/68/42
f 43/53/43 55/69/43 44/54/43
f 44/54/44 56/70/44 45/55/44
f 45/55/45 57/71/45 46/72/45
f 46/57/46 58/73/46 59/74/46
f 47/58/47 59/74/47 48/59/47
f 48/59/48 60/75/48 37/76/48
f 49/61/49 61/77/49 50/62/49
f 50/62/50 62/78/50 51/63/50
f 51/63/51 63/79/51 52/80/51
f 52/65/52 64/81/52 53/66/52
f 53/66/53 65/82/53 54/67/53
f 54/83/54 66/84/54 55/85/54
f 55/69/55 67/86/55 56/70/55
f 56/70/56 68/87/56 57/71/56
f 57/71/57 69/88/57 58/89/57
f 58/73/58 70/90/58 59/74/58
f 59/74/59 71/91/59 60/75/59
f 60/92/60 72/93/60 49/94/60
f 61/77/61 73/95/61 62/78/61
f 62/78/62 74/96/62 75/97/62
f 63/79/63 75/97/63 76/98/63
f 64/81/64 76/99/64 65/82/64
f 65/82/65 77/100/65 78/101/65
f 66/84/66 78/102/66 67/103/66
f 67/86/67 79/104/67 68/87/67
f 68/87/68 80/105/68 69/88/68
f 69/88/69 81/106/69 70/107/69
f 70/90/70 82/108/70 71/91/70
f 71/91/71 83/109/71 72/110/71
f 72/93/72 84/111/72 61/112/72
f 73/113/73 85/114/73 74/115/73
f 74/96/74 86/116/74 75/97/74
f 75/97/75 87/117/75 76/98/75
f 76/99/76 88/118/76 77/100/76
f 77/119/77 89/120/77 78/102/77
f 78/102/78 90/121/78 79/122/78
f 79/122/79 91/123/79 80/124/79
f 80/105/80 92/125/80 81/106/80
f 81/106/81 93/126/81 82/127/81
f 82/108/82 94/128/82 83/109/82
f 83/129/83 95/130/83 84/111/83
f 84/111/84 96/131/84 73/113/84
f 85/114/85 97/132/85 86/133/85
f 86/116/86 98/134/86 87/117/86
f 87/117/87 99/135/87 88/136/87
f 88/118/88 100/137/88 89/138/88
f 89/120/89 101/139/89 90/121/89
f 90/121/90 102/140/90 91/123/90
f 91/123/91 103/141/91 92/142/91
f 92/125/92 104/143/92 93/126/92
f 93/126/93 105/144/93 94/145/93
f 94/128/94 106/146/94 95/147/94
f 95/130/95 107/148/95 96/131/95
f 96/131/96 108/149/96 85/114/96
f 97/132/97 109/150/97 98/151/97
f 98/134/98 110/152/98 111/153/98
f 99/135/99 111/153/99 100/154/99
f 100/137/100 112/155/100 101/156/100
f 101/139/101 113/157/101 102/140/101
f 102/140/102 114/158/102 103/141/102
f 103/141/103 115/159/103 104/160/103
f 104/143/104 116/161/104 105/144/104
f 105/144/105 117/162/105 106/163/105
f 106/146/106 118/164/106 107/165/106
f 107/148/107 119/166/107 108/149/107
f 108/149/108 120/167/108 97/132/108
f 109/150/109 121/168/109 110/169/109
f 110/152/110 122/170/110 111/153/110
f 111/153/111 123/171/111 112/172/111
f 112/155/112 124/173/112 113/174/112
f 113/157/113 125/175/113 114/158/113
f 114/158/114 126/176/114 115/159/114
f 115/159/115 127/177/115 116/178/115
f 116/161/116 128/179/116 117/162/116
f 117/162/117 129/180/117 118/181/117
f 118/164/118 130/182/118 119/183/118
f 119/166/119 131/184/119 120/167/119
f 120/167/120 132/185/120 109/150/120
f 121/168/121 133/186/121 122/187/121
f 122/170/122 134/188/122 123/171/122
f 123/171/123 135/189/123 124/190/123
f 124/190/124 136/191/124 125/192/124
f 125/175/125 137/193/125 126/176/125
f 126/176/126 138/194/126 127/177/126
f 127/177/127 139/195/127 128/196/127
f 128/197/128 140/198/128 129/199/128
f 129/199/129 141/200/129 130/182/129
f 130/182/130 142/201/130 131/202/130
f 131/184/131 143/203/131 132/185/131
f 132/185/132 144/204/132 121/168/132
f 133/186/133 145/205/133 134/206/133
f 134/207/134 146/208/134 135/209/134
f 135/209/135 147/210/135 136/211/135
f 136/191/136 148/212/136 137/213/136
f 137/193/137 149/214/137 138/194/137
f 138/194/138 150/215/138 139/195/138
f 139/195/139 151/216/139 140/217/139
f 140/198/140 152/218/140 141/200/140
f 141/200/141 153/219/141 142/201/141
f 142/220/142 154/221/142 143/222/142
f 143/203/143 155/223/143 144/204/143
f 144/204/144 156/224/144 133/186/144
f 145/205/145 157/225/145 146/226/145
f 146/208/146 158/227/146 147/210/146
f 147/210/147 159/228/147 148/229/147
f 148/212/148 160/230/148 149/231/148
f 149/214/149 161/232/149 150/215/149
f 150/215/150 162/233/150 151/216/150
f 151/216/151 163/234/151 152/235/151
f 152/218/152 164/236/152 153/219/152
f 153/219/153 165/237/153 154/238/153
f 154/221/154 166/239/154 155/240/154
f 155/223/155 167/241/155 156/224/155
f 156/224/156 168/242/156 145/205/156
f 157/225/157 169/243/157 158/244/157
f 158/227/158 170/245/158 159/228/158
f 159/228/159 171/246/159 160/247/159
f 160/230/160 172/248/160 161/249/160
f 161/232/161 173/250/161 162/233/161
f 162/233/162 174/251/162 163/234/162
f 163/234/163 175/252/163 164/253/163
f 164/236/164 176/254/164 165/237/164
f 165/237/165 177/255/165 166/256/165
f 166/239/166 178/257/166 167/258/166
f 167/241/167 179/259/167 168/242/167
f 168/242/168 180/260/168 157/225/168
f 169/243/169 181/261/169 170/262/169
f 170/245/170 182/263/170 171/246/170
f 171/246/171 183/264/171 172/265/171
f 172/248/172 184/266/172 173/267/172
f 173/250/173 185/268/173 174/251/173
f 174/251/174 186/269/174 175/252/174
f 175/252/175 187/270/175 176/271/175
f 176/254/176 188/272/176 177/255/176
f 177/255/177 189/273/177 178/274/177
f 178/257/178 190/275/178 179/276/178
f 179/259/179 191/277/179 180/260/179
f 180/260/180 192/278/180 169/243/180
f 181/261/181 193/279/181 182/280/181
f 182/263/182 194/281/182 183/264/182
f 183/264/183 195/282/183 184/283/183
f 184/266/184 196/284/184 185/285/184
f 185/268/185 197/286/185 186/269/185
f 186/269/186 198/287/186 187/270/186
f 187/270/187 199/288/187 188/289/187
f 188/272/188 200/290/188 189/273/188
f 189/273/189 201/291/189 190/292/189
f 190/275/190 202/293/190 191/294/190
f 191/277/191 203/295/191 192/278/191
f 192/278/192 204/296/192 181/261/192
f 193/297/193 205/298/193 194/281/193
f 194/281/194 206/299/194 207/300/194
f 195/282/195 207/300/195 196/301/195
f 196/284/196 208/302/196 197/303/196
f 197/303/197 209/304/197 198/305/197
f 198/287/198 210/306/198 199/288/198
f 199/307/199 211/308/199 200/290/199
f 200/290/200 212/309/200 201/291/200
f 201/291/201 213/310/201 202/311/201
f 202/293/202 214/312/202 203/313/202
f 203/313/203 215/314/203 204/315/203
f 204/296/204 216/316/204 193/279/204
f 205/298/205 217/317/205 206/299/205
f 206/299/206 218/318/206 219/319/206
f 207/300/207 219/319/207 208/320/207
f 208/302/208 220/321/208 221/322/208
f 209/304/209 221/322/209 222/323/209
f 210/306/210 222/324/210 211/325/210
f 211/308/211 223/326/211 212/309/211
f 212/309/212 224/327/212 213/310/212
f 213/310/213 225/328/213 214/329/213
f 214/312/214 226/330/214 215/314/214
f 215/314/215 227/331/215 216/332/215
f 216/316/216 228/333/216 205/334/216
f 217/317/217 229/335/217 218/318/217
f 218/318/218 230/336/218 219/319/218
f 219/319/219 231/337/219 220/338/219
f 220/321/220 232/339/220 221/322/220
f 221/322/221 233/340/221 222/323/221
f 222/324/222 234/341/222 223/342/222
f 223/326/223 235/343/223 224/327/223
f 224/327/224 236/344/224 225/328/224
f 225/328/225 237/345/225 238/346/225
f 226/330/226 238/347/226 227/331/226
f 227/331/227 239/348/227 228/349/227
f 228/333/228 240/350/228 217/351/228
f 229/335/229 241/352/229 230/336/229
f 230/336/230 242/353/230 231/337/230
f 231/337/231 243/354/231 232/355/231
f 232/339/232 244/356/232 233/340/232
f 233/340/233 245/357/233 234/358/233
f 234/358/234 246/359/234 235/360/234
f 235/343/235 247/361/235 236/344/235
f 236/344/236 248/362/236 237/345/236
f 237/345/237 249/363/237 250/364/237
f 238/347/238 250/365/238 239/348/238
f 239/348/239 251/366/239 240/367/239
f 240/367/240 252/368/240 229/369/240
f 241/352/241 253/370/241 242/353/241
f 242/353/242 254/371/242 255/372/242
f 243/354/243 255/372/243 256/373/243
f 244/356/244 256/374/244 257/375/244
f 245/357/245 257/375/245 258/376/245
f 246/359/246 258/376/246 259/377/246
f 247/361/247 259/378/247 248/362/247
f 248/362/248 260/379/248 249/363/248
f 249/363/249 261/380/249 250/364/249
f 250/365/250 262/381/250 251/366/250
f 251/366/251 263/382/251 252/368/251
f 252/368/252 264/383/252 241/384/252
f 253/370/253 265/385/253 254/371/253
f 254/371/254 266/386/254 255/372/254
f 255/372/255 267/387/255 256/373/255
f 256/374/256 268/388/256 257/375/256
f 257/375/257 269/389/257 258/376/257
f 258/376/258 270/390/258 259/377/258
f 259/378/259 271/391/259 260/379/259
f 260/379/260 272/392/260 273/393/260
f 261/380/261 273/393/261 274/394/261
f 262/381/262 274/395/262 275/396/262
f 263/382/263 275/396/263 264/383/263
f 264/383/264 276/397/264 253/398/264
f 265/385/265 277/399/265 266/386/265
f 266/386/266 278/400/266 267/387/266
f 267/387/267 279/401/267 280/402/267
f 268/388/268 280/403/268 269/389/268
f 269/389/269 281/404/269 270/390/269
f 270/390/270 282/405/270 271/406/270
f 271/391/271 283/407/271 272/392/271
f 272/392/272 284/408/272 273/393/272
f 273/393/273 285/409/273 274/394/273
f 274/395/274 286/410/274 275/396/274
f 275/396/275 287/411/275 276/397/275
f 276/397/276 288/412/276 265/413/276
f 277/399/277 289/414/277 278/400/277
f 278/400/278 290/415/278 279/401/278
f 279/401/279 291/416/279 280/402/279
f 280/403/280 292/417/280 281/404/280
f 281/404/281 293/418/281 282/405/281
f 282/405/282 294/419/282 283/420/282
f 283/407/283 295/421/283 284/408/283
f 284/408/284 296/422/284 285/409/284
f 285/409/285 297/423/285 286/424/285
f 286/410/286 298/425/286 287/411/286
f 287/411/287 299/426/287 288/412/287
f 288/412/288 300/427/288 277/428/288
f 289/414/289 301/429/289 290/415/289
f 290/415/290 302/430/290 291/416/290
f 291/416/4 303/431/4 292/432/4
f 292/417/3 304/433/3 293/418/3
f 293/418/291 305/434/291 294/419/291
f 294/419/1 306/435/1 295/436/1
f 295/421/292 307/437/292 296/422/292
f 296/422/293 308/438/293 297/423/293
f 297/423/10 309/439/10 298/440/10
f 298/425/9 310/441/9 299/426/9
f 299/426/8 311/442/8 300/427/8
f 300/427/7 312/443/7 289/444/7
f 301/429/294 313/445/294 302/430/294
f 302/430/295 314/446/295 303/431/295
f 303/431/16 315/447/16 304/448/16
f 304/433/15 316/449/15 305/434/15
f 305/434/14 317/450/14 306/435/14
f 306/435/13 318/451/13 307/452/13
f 307/437/296 319/453/296 308/438/296
f 308/438/23 320/454/23 309/439/23
f 309/439/22 321/455/22 310/456/22
f 310/441/21 322/457/21 311/442/21
f 311/442/297 323/458/297 312/443/297
f 312/443/298 324/459/298 301/460/298
f 313/445/299 325/461/299 314/446/299
f 314/446/300 326/462/300 327/463/300
f 315/447/301 327/463/301 328/464/301
f 316/449/27 328/465/27 317/450/27
f 317/450/302 329/466/302 318/451/302
f 318/451/303 330/467/303 319/468/303
f 319/453/304 331/469/304 320/454/304
f 320/454/305 332/470/305 321/455/305
f 321/455/34 333/471/34 322/472/34
f 322/457/33 334/473/33 323/458/33
f 323/458/306 335/474/306 324/459/306
f 324/459/307 336/475/307 313/476/307
f 325/461/308 337/477/308 326/462/308
f 326/462/309 338/478/309 327/463/309
f 327/463/310 339/479/310 328/464/310
f 328/465/39 340/480/39 329/466/39
f 329/466/311 341/481/311 330/467/311
f 330/467/312 342/482/312 331/483/312
f 331/469/313 343/484/313 332/470/313
f 332/470/314 344/485/314 333/471/314
f 333/471/315 345/486/315 334/487/315
f 334/473/45 346/488/45 335/474/45
f 335/474/316 347/489/316 336/475/316
f 336/475/317 348/490/317 337/491/317
f 337/492/318 349/493/318 338/494/318
f 338/478/319 350/495/319 339/479/319
f 339/479/52 351/496/52 340/497/52
f 340/480/51 352/498/51 353/499/51
f 341/481/50 353/499/50 342/482/50
f 342/482/49 354/500/49 343/501/49
f 343/502/320 355/503/320 344/504/320
f 344/485/321 356/505/321 345/486/321
f 345/486/58 357/506/58 346/507/58
f 346/488/57 358/508/57 347/489/57
f 347/489/56 359/509/56 348/490/56
f 348/490/322 360/510/322 337/491/322
f 349/493/323 361/511/323 362/512/323
f 350/495/324 362/513/324 351/496/324
f 351/496/64 363/514/64 352/515/64
f 352/498/63 364/516/63 353/499/63
f 353/499/62 365/517/62 354/500/62
f 354/500/325 366/518/325 355/519/325
f 355/503/326 367/520/326 356/521/326
f 356/505/327 368/522/327 357/506/327
f 357/506/70 369/523/70 358/524/70
f 358/508/69 370/525/69 359/509/69
f 359/509/328 371/526/328 360/510/328
f 360/510/329 372/527/329 349/528/329
f 361/511/330 373/529/330 362/512/330
f 362/512/77 374/530/77 363/531/77
f 363/514/76 375/532/76 364/533/76
f 364/516/75 376/534/75 365/517/75
f 365/517/74 377/535/74 366/518/74
f 366/536/331 378/537/331 367/520/331
f 367/520/84 379/538/84 368/539/84
f 368/539/332 380/540/332 369/541/332
f 369/523/82 381/542/82 370/543/82
f 370/525/81 382/544/81 371/526/81
f 371/526/80 383/545/80 372/527/80
f 372/546/333 384/547/333 361/511/333
f 373/529/334 385/548/334 374/530/334
f 374/530/335 386/549/335 375/550/335
f 375/532/88 387/551/88 376/552/88
f 376/534/87 388/553/87 377/535/87
f 377/535/86 389/554/86 378/555/86
f 378/537/336 390/556/336 379/538/336
f 379/538/96 391/557/96 380/540/96
f 380/540/337 392/558/337 381/559/337
f 381/542/338 393/560/338 382/561/338
f 382/544/93 394/562/93 383/545/93
f 383/545/339 395/563/339 384/564/339
f 384/547/91 396/565/91 373/529/91
f 385/548/340 397/566/340 386/549/340
f 386/549/341 398/567/341 387/568/341
f 387/551/100 399/569/100 388/570/100
f 388/553/99 400/571/99 401/572/99
f 389/554/342 401/572/342 390/573/342
f 390/556/343 402/574/343 391/557/343
f 391/557/344 403/575/344 392/558/344
f 392/558/107 404/576/107 393/577/107
f 393/560/106 405/578/106 394/579/106
f 394/562/345 406/580/345 395/563/345
f 395/563/104 407/581/104 396/582/104
f 396/565/346 408/583/346 385/548/346
f 397/566/347 409/584/347 398/567/347
f 398/567/113 410/585/113 399/586/113
f 399/569/112 411/587/112 400/588/112
f 400/571/111 412/589/111 401/572/111
f 401/572/348 413/590/348 402/591/348
f 402/574/349 414/592/349 403/575/349
f 403/575/350 415/593/350 404/576/350
f 404/576/351 416/594/351 405/595/351
f 405/578/118 417/596/118 406/597/118
f 406/580/117 418/598/117 407/581/117
f 407/581/116 419/599/116 408/600/116
f 408/583/352 420/601/352 397/566/352
f 409/584/353 421/602/353 410/585/353
f 410/585/354 422/603/354 411/604/354
f 411/605/124 423/606/124 412/589/124
f 412/589/123 424/607/123 425/608/123
f 413/609/355 425/610/355 414/611/355
f 414/592/356 426/612/356 427/613/356
f 415/593/357 427/613/357 416/594/357
f 416/594/358 428/614/358 417/615/358
f 417/596/359 429/616/359 418/617/359
f 418/617/129 430/618/129 419/619/129
f 419/599/360 431/620/360 420/621/360
f 420/601/361 432/622/361 409/584/361
f 421/602/362 433/623/362 422/603/362
f 422/603/363 434/624/363 423/625/363
f 423/606/364 435/626/364 424/607/364
f 424/627/135 436/628/135 425/610/135
f 425/610/365 437/629/365 426/630/365
f 426/612/366 438/631/366 427/613/366
f 427/613/367 439/632/367 428/614/367
f 428/614/368 440/633/368 441/634/368
f 429/635/142 441/636/142 430/637/142
f 430/618/141 442/638/141 431/639/141
f 431/639/369 443/640/369 432/641/369
f 432/622/370 444/642/370 421/602/370
f 433/623/371 445/643/371 434/624/371
f 434/624/372 446/644/372 435/645/372
f 435/626/148 447/646/148 436/647/148
f 436/628/373 448/648/373 437/629/373
f 437/629/374 449/649/374 450/650/374
f 438/631/375 450/651/375 439/632/375
f 439/632/376 451/652/376 440/633/376
f 440/633/155 452/653/155 441/634/155
f 441/636/154 453/654/154 442/655/154
f 442/638/153 454/656/153 443/640/153
f 443/640/152 455/657/152 444/658/152
f 444/642/377 456/659/377 433/623/377
f 445/643/162 457/660/162 446/644/162
f 446/644/378 458/661/378 447/662/378
f 447/646/160 459/663/160 448/664/160
f 448/648/159 460/665/159 449/649/159
f 449/649/379 461/666/379 450/650/379
f 450/651/380 462/667/380 451/652/380
f 451/652/168 463/668/168 452/653/168
f 452/653/381 464/669/381 453/670/381
f 453/654/166 465/671/166 454/672/166
f 454/656/165 466/673/165 455/657/165
f 455/657/382 467/674/382 456/675/382
f 456/659/383 468/676/383 445/643/383
f 457/660/384 469/677/384 458/661/384
f 458/661/385 470/678/385 459/679/385
f 459/663/172 471/680/172 460/681/172
f 460/665/171 472/682/171 461/666/171
f 461/666/386 473/683/386 462/684/386
f 462/667/387 474/685/387 463/668/387
f 463/668/388 475/686/388 464/669/388
f 464/669/179 476/687/179 465/688/179
f 465/671/178 477/689/178 466/690/178
f 466/673/389 478/691/389 467/674/389
f 467/674/390 479/692/390 468/693/390
f 468/676/391 480/694/391 457/660/391
f 469/677/392 481/695/392 470/678/392
f 470/678/393 482/696/393 471/697/393
f 471/680/184 483/698/184 472/699/184
f 472/682/183 484/700/183 473/683/183
f 473/683/394 485/701/394 474/702/394
f 474/685/395 486/703/395 475/686/395
f 475/686/396 487/704/396 476/687/396
f 476/687/191 488/705/191 477/706/191
f 477/689/190 489/707/190 478/708/190
f 478/691/189 490/709/189 479/692/189
f 479/692/397 491/710/397 480/711/397
f 480/694/398 492/712/398 469/677/398
f 481/695/399 493/713/399 482/696/399
f 482/714/400 494/715/400 483/698/400
f 483/698/196 495/716/196 484/717/196
f 484/700/195 496/718/195 485/701/195
f 485/701/401 497/719/401 486/720/401
f 486/720/402 498/721/402 487/722/402
f 487/704/403 499/723/403 488/705/403
f 488/724/404 500/725/404 501/726/404
f 489/707/202 501/726/202 502/727/202
f 490/709/201 502/728/201 503/729/201
f 491/710/200 503/729/200 492/730/200
f 492/730/405 504/731/405 481/732/405
f 493/713/406 505/733/406 494/734/406
f 494/715/407 506/735/407 495/716/407
f 495/716/208 507/736/208 508/737/208
f 496/718/207 508/738/207 497/719/207
f 497/719/408 509/739/408 510/740/408
f 498/721/409 510/740/409 499/741/409
f 499/723/410 511/742/410 500/743/410
f 500/725/215 512/744/215 501/726/215
f 501/726/214 513/745/214 502/727/214
f 502/728/213 514/746/213 503/729/213
f 503/729/411 515/747/411 504/731/411
f 504/731/412 516/748/412 493/749/412
f 505/733/413 517/750/413 506/751/413
f 506/735/221 518/752/221 507/736/221
f 507/736/220 519/753/220 508/737/220
f 508/738/219 520/754/219 509/739/219
f 509/739/414 521/755/414 510/740/414
f 510/740/415 522/756/415 511/757/415
f 511/742/416 523/758/416 512/759/416
f 512/744/227 524/760/227 525/761/227
f 513/745/226 525/761/226 514/762/226
f 514/746/225 526/763/225 515/747/225
f 515/747/417 527/764/417 516/748/417
f 516/748/223 528/765/223 505/766/223
f 517/767/418 529/768/418 518/752/418
f 518/752/233 530/769/233 519/753/233
f 519/753/232 531/770/232 520/771/232
f 520/754/231 532/772/231 521/755/231
f 521/755/419 533/773/419 522/756/419
f 522/756/420 534/774/420 523/775/420
f 523/776/421 535/777/421 524/760/421
f 524/760/239 536/778/239 525/761/239
f 525/761/422 537/779/422 526/780/422
f 526/763/237 538/781/237 539/782/237
f 527/764/423 539/782/423 528/765/423
f 528/765/424 540/783/424 517/784/424
f 529/768/425 541/785/425 530/769/425
f 530/769/245 542/786/245 531/770/245
f 531/770/244 543/787/244 532/788/244
f 532/772/243 544/789/243 533/773/243
f 533/773/426 545/790/426 534/774/426
f 534/774/241 546/791/241 535/792/241
f 535/777/427 547/793/427 536/778/427
f 536/778/428 548/794/428 537/779/428
f 537/779/429 549/795/429 538/796/429
f 538/781/430 550/797/430 539/782/430
f 539/782/248 551/798/248 540/783/248
f 540/783/431 552/799/431 529/800/431
f 541/785/432 553/801/432 542/786/432
f 542/786/433 554/802/433 543/787/433
f 543/787/256 555/803/256 544/804/256
f 544/789/434 556/805/434 545/790/434
f 545/790/254 557/806/254 546/791/254
f 546/791/435 558/807/435 547/808/435
f 547/793/436 559/809/436 548/794/436
f 548/794/437 560/810/437 549/795/437
f 549/795/438 561/811/438 550/812/438
f 550/797/261 562/813/261 551/798/261
f 551/798/260 563/814/260 552/799/260
f 552/799/439 564/815/439 541/816/439
f 553/801/270 565/817/270 554/802/270
f 554/802/440 566/818/440 555/803/440
f 555/803/441 567/819/441 556/820/441
f 556/805/267 568/821/267 557/806/267
f 557/806/442 569/822/442 558/807/442
f 558/807/265 570/823/265 559/824/265
f 559/809/276 571/825/276 560/810/276
f 560/810/443 572/826/443 561/811/443
f 561/811/444 573/827/444 562/828/444
f 562/813/273 574/829/273 563/814/273
f 563/814/445 575/830/445 564/815/445
f 564/815/271 576/831/271 553/832/271
f 565/817/282 1/1/282 566/818/282
f 566/818/446 2/3/446 567/819/446
f 567/819/447 3/5/447 568/833/447
f 568/821/448 4/8/448 569/822/448
f 569/822/449 5/10/449 570/823/449
f 570/823/277 6/12/277 571/834/277
f 571/825/288 7/15/288 572/826/288
f 572/826/450 8/17/450 573/827/450
f 573/827/451 9/19/451 574/835/451
f 574/829/452 10/22/452 575/830/452
f 575/830/453 11/24/453 576/831/453
f 576/831/283 12/26/283 565/836/283
f 13/2/454 14/4/454 2/3/454
f 14/4/455 15/6/455 3/5/455
f 15/6/456 16/32/456 4/7/456
f 16/9/4 17/11/4 5/10/4
f 17/11/457 18/13/457 6/12/457
f 18/13/289 19/36/289 7/14/289
f 19/16/458 20/18/458 8/17/458
f 20/18/8 21/20/8 9/19/8
f 21/20/459 22/40/459 10/21/459
f 22/23/10 23/25/10 11/24/10
f 23/25/11 24/43/11 12/26/11
f 12/26/292 24/43/292 13/28/292
f 25/29/460 26/30/460 14/4/460
f 26/30/461 27/31/461 15/6/461
f 27/31/15 28/48/15 16/32/15
f 28/33/16 29/34/16 17/11/16
f 29/34/17 30/35/17 18/13/17
f 30/35/18 31/52/18 19/36/18
f 31/37/19 32/38/19 20/18/19
f 32/38/462 33/39/462 21/20/462
f 33/39/21 34/56/21 22/40/21
f 34/41/22 35/42/22 23/25/22
f 35/42/463 36/44/463 24/43/463
f 36/44/24 25/60/24 13/28/24
f 37/45/25 38/46/25 26/30/25
f 38/46/464 39/47/464 27/31/464
f 39/47/27 40/64/27 28/48/27
f 40/49/28 41/50/28 29/34/28
f 41/50/29 42/51/29 30/35/29
f 42/51/299 43/68/299 31/52/299
f 43/53/31 44/54/31 32/38/31
f 44/54/32 45/55/32 33/39/32
f 45/55/33 46/72/33 34/56/33
f 46/57/465 47/58/465 35/42/465
f 47/58/466 48/59/466 36/44/466
f 48/59/467 37/76/467 25/60/467
f 49/61/468 50/62/468 38/46/468
f 50/62/311 51/63/311 39/47/311
f 51/63/39 52/80/39 40/64/39
f 52/65/310 53/66/310 41/50/310
f 53/66/469 54/67/469 42/51/469
f 54/67/470 55/837/470 43/68/470
f 55/69/471 56/70/471 44/54/471
f 56/70/316 57/71/316 45/55/316
f 57/71/45 58/89/45 46/72/45
f 47/58/315 46/57/315 59/74/315
f 59/74/472 60/75/472 48/59/472
f 60/75/473 49/838/473 37/76/473
f 61/77/49 62/78/49 50/62/49
f 62/78/50 63/79/50 51/63/50
f 63/79/51 64/839/51 52/80/51
f 64/81/52 65/82/52 53/66/52
f 65/82/53 66/840/53 54/67/53
f 66/84/54 67/103/54 55/85/54
f 67/86/322 68/87/322 56/70/322
f 68/87/56 69/88/56 57/71/56
f 69/88/57 70/107/57 58/89/57
f 70/90/58 71/91/58 59/74/58
f 71/91/59 72/110/59 60/75/59
f 72/93/60 61/112/60 49/94/60
f 73/95/61 74/96/61 62/78/61
f 63/79/474 62/78/474 75/97/474
f 64/839/63 63/79/63 76/98/63
f 76/99/64 77/100/64 65/82/64
f 66/840/475 65/82/475 78/101/475
f 78/102/66 79/122/66 67/103/66
f 79/104/476 80/105/476 68/87/476
f 80/105/68 81/106/68 69/88/68
f 81/106/69 82/127/69 70/107/69
f 82/108/70 83/109/70 71/91/70
f 83/109/477 84/841/477 72/110/477
f 84/111/326 73/113/326 61/112/326
f 85/114/478 86/133/478 74/115/478
f 86/116/74 87/117/74 75/97/74
f 87/117/75 88/136/75 76/98/75
f 88/118/76 89/138/76 77/100/76
f 89/120/479 90/121/479 78/102/479
f 90/121/78 91/123/78 79/122/78
f 91/123/79 92/142/79 80/124/79
f 92/125/80 93/126/80 81/106/80
f 93/126/81 94/145/81 82/127/81
f 94/128/82 95/147/82 83/109/82
f 95/130/480 96/131/480 84/111/480
f 96/131/481 85/114/481 73/113/481
f 97/132/85 98/151/85 86/133/85
f 98/134/86 99/135/86 87/117/86
f 99/135/87 100/154/87 88/136/87
f 100/137/88 101/156/88 89/138/88
f 101/139/482 102/140/482 90/121/482
f 102/140/334 103/141/334 91/123/334
f 103/141/483 104/160/483 92/142/483
f 104/143/92 105/144/92 93/126/92
f 105/144/93 106/163/93 94/145/93
f 106/146/94 107/165/94 95/147/94
f 107/148/95 108/149/95 96/131/95
f 108/149/96 97/132/96 85/114/96
f 109/150/484 110/169/484 98/151/484
f 99/135/342 98/134/342 111/153/342
f 111/153/99 112/172/99 100/154/99
f 112/155/100 113/174/100 101/156/100
f 113/157/341 114/158/341 102/140/341
f 114/158/485 115/159/485 103/141/485
f 115/159/103 116/178/103 104/160/103
f 116/161/104 117/162/104 105/144/104
f 117/162/105 118/181/105 106/163/105
f 118/164/106 119/183/106 107/165/106
f 119/166/486 120/167/486 108/149/486
f 120/167/487 109/150/487 97/132/487
f 121/168/488 122/187/488 110/169/488
f 122/170/348 123/171/348 111/153/348
f 123/171/489 124/190/489 112/172/489
f 124/173/112 125/842/112 113/174/112
f 125/175/113 126/176/113 114/158/113
f 126/176/114 127/177/114 115/159/114
f 127/177/115 128/196/115 116/178/115
f 128/179/116 129/180/116 117/162/116
f 129/180/117 130/843/117 118/181/117
f 130/182/118 131/202/118 119/183/118
f 131/184/490 132/185/490 120/167/490
f 132/185/491 121/168/491 109/150/491
f 133/186/121 134/206/121 122/187/121
f 134/188/122 135/189/122 123/171/122
f 135/189/123 136/191/123 124/190/123
f 136/191/124 137/213/124 125/192/124
f 137/193/125 138/194/125 126/176/125
f 138/194/492 139/195/492 127/177/492
f 139/195/493 140/217/493 128/196/493
f 140/198/128 141/200/128 129/199/128
f 141/200/129 142/201/129 130/182/129
f 142/201/359 143/844/359 131/202/359
f 143/203/131 144/204/131 132/185/131
f 144/204/132 133/186/132 121/168/132
f 145/205/494 146/226/494 134/206/494
f 146/208/495 147/210/495 135/209/495
f 147/210/135 148/229/135 136/211/135
f 148/212/136 149/231/136 137/213/136
f 149/214/137 150/215/137 138/194/137
f 150/215/496 151/216/496 139/195/496
f 151/216/497 152/235/497 140/217/497
f 152/218/498 153/219/498 141/200/498
f 153/219/141 154/238/141 142/201/141
f 154/221/142 155/240/142 143/222/142
f 155/223/143 156/224/143 144/204/143
f 156/224/499 145/205/499 133/186/499
f 157/225/375 158/244/375 146/226/375
f 158/227/146 159/228/146 147/210/146
f 159/228/147 160/247/147 148/229/147
f 160/230/500 161/249/500 149/231/500
f 161/232/501 162/233/501 150/215/501
f 162/233/150 163/234/150 151/216/150
f 163/234/151 164/253/151 152/235/151
f 164/236/152 165/237/152 153/219/152
f 165/237/153 166/256/153 154/238/153
f 166/239/154 167/258/154 155/240/154
f 167/241/155 168/242/155 156/224/155
f 168/242/502 157/225/502 145/205/502
f 169/243/503 170/262/503 158/244/503
f 170/245/158 171/246/158 159/228/158
f 171/246/159 172/265/159 160/247/159
f 172/248/160 173/267/160 161/249/160
f 173/250/378 174/251/378 162/233/378
f 174/251/162 175/252/162 163/234/162
f 175/252/163 176/271/163 164/253/163
f 176/254/504 177/255/504 165/237/504
f 177/255/165 178/274/165 166/256/165
f 178/257/166 179/276/166 167/258/166
f 179/259/167 180/260/167 168/242/167
f 180/260/505 169/243/505 157/225/505
f 181/261/169 182/280/169 170/262/169
f 182/263/506 183/264/506 171/246/506
f 183/264/171 184/283/171 172/265/171
f 184/266/172 185/285/172 173/267/172
f 185/268/507 186/269/507 174/251/507
f 186/269/384 187/270/384 175/252/384
f 187/270/508 188/289/508 176/271/508
f 188/272/390 189/273/390 177/255/390
f 189/273/177 190/292/177 178/274/177
f 190/275/178 191/294/178 179/276/178
f 191/277/509 192/278/509 180/260/509
f 192/278/388 181/261/388 169/243/388
f 193/279/181 194/845/181 182/280/181
f 194/281/182 195/282/182 183/264/182
f 195/282/510 196/301/510 184/283/510
f 196/284/184 197/303/184 185/285/184
f 197/286/185 198/287/185 186/269/185
f 198/287/186 199/288/186 187/270/186
f 199/288/511 200/846/511 188/289/511
f 200/290/512 201/291/512 189/273/512
f 201/291/189 202/311/189 190/292/189
f 202/293/513 203/313/513 191/294/513
f 203/295/191 204/296/191 192/278/191
f 204/296/192 193/279/192 181/261/192
f 205/298/514 206/299/514 194/281/514
f 195/282/515 194/281/515 207/300/515
f 207/300/195 208/320/195 196/301/195
f 208/302/196 209/304/196 197/303/196
f 209/304/400 210/847/400 198/305/400
f 210/306/516 211/325/516 199/288/516
f 211/308/199 212/309/199 200/290/199
f 212/309/200 213/310/200 201/291/200
f 213/310/201 214/329/201 202/311/201
f 214/312/202 215/314/202 203/313/202
f 215/314/203 216/332/203 204/315/203
f 216/316/517 205/334/517 193/279/517
f 217/317/205 218/318/205 206/299/205
f 207/300/518 206/299/518 219/319/518
f 219/319/207 220/338/207 208/320/207
f 209/304/519 208/302/519 221/322/519
f 210/847/520 209/304/520 222/323/520
f 222/324/210 223/342/210 211/325/210
f 223/326/211 224/327/211 212/309/211
f 224/327/521 225/328/521 213/310/521
f 225/328/213 226/848/213 214/329/213
f 226/330/214 227/331/214 215/314/214
f 227/331/215 228/349/215 216/332/215
f 228/333/216 217/351/216 205/334/216
f 229/335/415 230/336/415 218/318/415
f 230/336/414 231/337/414 219/319/414
f 231/337/219 232/355/219 220/338/219
f 232/339/220 233/340/220 221/322/220
f 233/340/221 234/358/221 222/323/221
f 234/341/413 235/849/413 223/342/413
f 235/343/522 236/344/522 224/327/522
f 236/344/523 237/345/523 225/328/523
f 226/848/225 225/328/225 238/346/225
f 238/347/226 239/348/226 227/331/226
f 239/348/227 240/367/227 228/349/227
f 240/350/524 229/850/524 217/351/524
f 241/352/420 242/353/420 230/336/420
f 242/353/230 243/354/230 231/337/230
f 243/354/231 244/851/231 232/355/231
f 244/356/232 245/357/232 233/340/232
f 245/357/233 246/359/233 234/358/233
f 246/359/234 247/852/234 235/360/234
f 247/361/525 248/362/525 236/344/525
f 248/362/526 249/363/526 237/345/526
f 238/346/237 237/345/237 250/364/237
f 250/365/422 251/366/422 239/348/422
f 251/366/239 252/368/239 240/367/239
f 252/368/527 241/384/527 229/369/527
f 253/370/528 254/371/528 242/353/528
f 243/354/426 242/353/426 255/372/426
f 244/851/243 243/354/243 256/373/243
f 245/357/244 244/356/244 257/375/244
f 246/359/245 245/357/245 258/376/245
f 247/852/246 246/359/246 259/377/246
f 259/378/431 260/379/431 248/362/431
f 260/379/248 261/380/248 249/363/248
f 261/380/430 262/853/430 250/364/430
f 262/381/250 263/382/250 251/366/250
f 263/382/529 264/383/529 252/368/529
f 264/383/530 253/398/530 241/384/530
f 265/385/531 266/386/531 254/371/531
f 266/386/254 267/387/254 255/372/254
f 267/387/255 268/854/255 256/373/255
f 268/388/256 269/389/256 257/375/256
f 269/389/257 270/390/257 258/376/257
f 270/390/532 271/406/532 259/377/532
f 271/391/533 272/392/533 260/379/533
f 261/380/260 260/379/260 273/393/260
f 262/853/261 261/380/261 274/394/261
f 263/382/438 262/381/438 275/396/438
f 275/396/263 276/397/263 264/383/263
f 276/397/436 265/413/436 253/398/436
f 277/399/265 278/400/265 266/386/265
f 278/400/534 279/401/534 267/387/534
f 268/854/267 267/387/267 280/402/267
f 280/403/268 281/404/268 269/389/268
f 281/404/535 282/405/535 270/390/535
f 282/405/270 283/420/270 271/406/270
f 283/407/536 284/408/536 272/392/536
f 284/408/445 285/409/445 273/393/445
f 285/409/273 286/424/273 274/394/273
f 286/410/444 287/411/444 275/396/444
f 287/411/443 288/412/443 276/397/443
f 288/412/276 277/428/276 265/413/276
f 289/414/537 290/415/537 278/400/537
f 290/415/538 291/416/538 279/401/538
f 291/416/448 292/432/448 280/402/448
f 292/417/280 293/418/280 281/404/280
f 293/418/281 294/419/281 282/405/281
f 294/419/539 295/436/539 283/420/539
f 295/421/540 296/422/540 284/408/540
f 296/422/284 297/423/284 285/409/284
f 297/423/452 298/440/452 286/424/452
f 298/425/286 299/426/286 287/411/286
f 299/426/450 300/427/450 288/412/450
f 300/427/288 289/444/288 277/428/288
f 301/429/289 302/430/289 290/415/289
f 302/430/541 303/431/541 291/416/541
f 303/431/4 304/448/4 292/432/4
f 304/433/456 305/434/456 293/418/456
f 305/434/291 306/435/291 294/419/291
f 306/435/454 307/452/454 295/436/454
f 307/437/12 308/438/12 296/422/12
f 308/438/293 309/439/293 297/423/293
f 309/439/10 310/456/10 298/440/10
f 310/441/9 311/442/9 299/426/9
f 311/442/542 312/443/542 300/427/542
f 312/443/7 301/460/7 289/444/7
f 313/445/294 314/446/294 302/430/294
f 314/446/17 315/447/17 303/431/17
f 315/447/16 316/855/16 304/448/16
f 316/449/15 317/450/15 305/434/15
f 317/450/543 318/451/543 306/435/543
f 318/451/13 319/468/13 307/452/13
f 319/453/296 320/454/296 308/438/296
f 320/454/23 321/455/23 309/439/23
f 321/455/22 322/472/22 310/456/22
f 322/457/544 323/458/544 311/442/544
f 323/458/545 324/459/545 312/443/545
f 324/459/546 313/476/546 301/460/546
f 325/461/547 326/462/547 314/446/547
f 315/447/548 314/446/548 327/463/548
f 316/855/28 315/447/28 328/464/28
f 328/465/27 329/466/27 317/450/27
f 329/466/549 330/467/549 318/451/549
f 330/467/550 331/483/550 319/468/550
f 331/469/36 332/470/36 320/454/36
f 332/470/466 333/471/466 321/455/466
f 333/471/34 334/487/34 322/472/34
f 334/473/551 335/474/551 323/458/551
f 335/474/552 336/475/552 324/459/552
f 336/475/553 325/856/553 313/476/553
f 337/477/308 338/478/308 326/462/308
f 338/478/309 339/479/309 327/463/309
f 339/479/310 340/497/310 328/464/310
f 340/480/39 341/481/39 329/466/39
f 341/481/311 342/482/311 330/467/311
f 342/482/312 343/501/312 331/483/312
f 343/484/313 344/485/313 332/470/313
f 344/485/314 345/486/314 333/471/314
f 345/486/554 346/507/554 334/487/554
f 346/488/45 347/489/45 335/474/45
f 347/489/555 348/490/555 336/475/555
f 325/856/556 336/475/556 337/491/556
f 349/493/557 350/857/557 338/494/557
f 350/495/558 351/496/558 339/479/558
f 351/496/52 352/515/52 340/497/52
f 341/481/51 340/480/51 353/499/51
f 353/499/50 354/500/50 342/482/50
f 354/500/49 355/519/49 343/501/49
f 355/503/320 356/521/320 344/504/320
f 356/505/59 357/506/59 345/486/59
f 357/506/58 358/524/58 346/507/58
f 358/508/57 359/509/57 347/489/57
f 359/509/559 360/510/559 348/490/559
f 360/510/560 349/528/560 337/491/560
f 350/857/561 349/493/561 362/512/561
f 362/513/475 363/514/475 351/496/475
f 363/514/64 364/533/64 352/515/64
f 364/516/63 365/517/63 353/499/63
f 365/517/62 366/518/62 354/500/62
f 366/518/61 367/858/61 355/519/61
f 367/520/72 368/539/72 356/521/72
f 368/522/327 369/523/327 357/506/327
f 369/523/70 370/543/70 358/524/70
f 370/525/69 371/526/69 359/509/69
f 371/526/68 372/527/68 360/510/68
f 372/527/67 361/859/67 349/528/67
f 373/529/78 374/530/78 362/512/78
f 374/530/77 375/550/77 363/531/77
f 375/532/76 376/552/76 364/533/76
f 376/534/75 377/535/75 365/517/75
f 377/535/562 378/555/562 366/518/562
f 378/537/331 379/538/331 367/520/331
f 379/538/84 380/540/84 368/539/84
f 380/540/332 381/559/332 369/541/332
f 381/542/563 382/561/563 370/543/563
f 382/544/81 383/545/81 371/526/81
f 383/545/80 384/564/80 372/527/80
f 384/547/79 373/529/79 361/511/79
f 385/548/564 386/549/564 374/530/564
f 386/549/335 387/568/335 375/550/335
f 387/551/88 388/570/88 376/552/88
f 388/553/87 389/554/87 377/535/87
f 389/554/86 390/573/86 378/555/86
f 390/556/336 391/557/336 379/538/336
f 391/557/565 392/558/565 380/540/565
f 392/558/95 393/577/95 381/559/95
f 393/560/94 394/579/94 382/561/94
f 394/562/93 395/563/93 383/545/93
f 395/563/339 396/582/339 384/564/339
f 396/565/566 385/548/566 373/529/566
f 397/566/340 398/567/340 386/549/340
f 398/567/341 399/586/341 387/568/341
f 399/569/100 400/588/100 388/570/100
f 389/554/99 388/553/99 401/572/99
f 401/572/342 402/591/342 390/573/342
f 402/574/567 403/575/567 391/557/567
f 403/575/108 404/576/108 392/558/108
f 404/576/107 405/595/107 393/577/107
f 405/578/106 406/597/106 394/579/106
f 406/580/105 407/581/105 395/563/105
f 407/581/104 408/600/104 396/582/104
f 408/583/346 397/566/346 385/548/346
f 409/584/114 410/585/114 398/567/114
f 410/585/568 411/604/568 399/586/568
f 411/587/112 412/860/112 400/588/112
f 412/589/111 413/590/111 401/572/111
f 413/590/110 414/861/110 402/591/110
f 414/592/569 415/593/569 403/575/569
f 415/593/570 416/594/570 404/576/570
f 416/594/351 417/615/351 405/595/351
f 417/596/118 418/617/118 406/597/118
f 418/598/117 419/599/117 407/581/117
f 419/599/571 420/621/571 408/600/571
f 420/601/572 409/584/572 397/566/572
f 421/602/353 422/603/353 410/585/353
f 422/603/354 423/625/354 411/604/354
f 423/606/124 424/607/124 412/589/124
f 413/590/123 412/589/123 425/608/123
f 425/610/573 426/630/573 414/611/573
f 415/593/356 414/592/356 427/613/356
f 427/613/357 428/614/357 416/594/357
f 428/614/574 429/862/574 417/615/574
f 429/616/359 430/618/359 418/617/359
f 430/618/129 431/639/129 419/619/129
f 431/620/575 432/863/575 420/621/575
f 432/622/361 421/602/361 409/584/361
f 433/623/576 434/624/576 422/603/576
f 434/624/137 435/645/137 423/625/137
f 435/626/136 436/647/136 424/607/136
f 436/628/135 437/629/135 425/610/135
f 437/629/495 438/864/495 426/630/495
f 438/631/366 439/632/366 427/613/366
f 439/632/367 440/633/367 428/614/367
f 429/862/143 428/614/143 441/634/143
f 441/636/142 442/655/142 430/637/142
f 442/638/141 443/640/141 431/639/141
f 443/640/577 444/658/577 432/641/577
f 444/642/578 433/623/578 421/602/578
f 445/643/579 446/644/579 434/624/579
f 446/644/149 447/662/149 435/645/149
f 447/646/148 448/664/148 436/647/148
f 448/648/147 449/649/147 437/629/147
f 438/864/146 437/629/146 450/650/146
f 450/651/580 451/652/580 439/632/580
f 451/652/502 452/653/502 440/633/502
f 452/653/155 453/670/155 441/634/155
f 453/654/154 454/672/154 442/655/154
f 454/656/153 455/657/153 443/640/153
f 455/657/581 456/675/581 444/658/581
f 456/659/151 445/643/151 433/623/151
f 457/660/162 458/661/162 446/644/162
f 458/661/582 459/679/582 447/662/582
f 459/663/160 460/681/160 448/664/160
f 460/665/583 461/666/583 449/649/583
f 461/666/379 462/684/379 450/650/379
f 462/667/503 463/668/503 451/652/503
f 463/668/584 464/669/584 452/653/584
f 464/669/167 465/688/167 453/670/167
f 465/671/166 466/690/166 454/672/166
f 466/673/165 467/674/165 455/657/165
f 467/674/585 468/693/585 456/675/585
f 468/676/383 457/660/383 445/643/383
f 469/677/586 470/678/586 458/661/586
f 470/678/587 471/697/587 459/679/587
f 471/680/172 472/699/172 460/681/172
f 472/682/171 473/683/171 461/666/171
f 473/683/386 474/702/386 462/684/386
f 474/685/588 475/686/588 463/668/588
f 475/686/589 476/687/589 464/669/589
f 476/687/179 477/706/179 465/688/179
f 477/689/178 478/708/178 466/690/178
f 478/691/389 479/692/389 467/674/389
f 479/692/390 480/711/390 468/693/390
f 480/694/590 469/677/590 457/660/590
f 481/695/591 482/696/591 470/678/591
f 482/696/185 483/865/185 471/697/185
f 483/698/592 484/717/592 472/699/592
f 484/700/510 485/701/510 473/683/510
f 485/701/593 486/720/593 474/702/593
f 486/703/594 487/704/594 475/686/594
f 487/704/396 488/705/396 476/687/396
f 488/705/191 489/866/191 477/706/191
f 489/707/190 490/867/190 478/708/190
f 490/709/189 491/710/189 479/692/189
f 491/710/512 492/730/512 480/711/512
f 492/712/187 481/695/187 469/677/187
f 493/713/198 494/734/198 482/696/198
f 494/715/197 495/716/197 483/698/197
f 495/716/595 496/868/595 484/717/595
f 496/718/195 497/719/195 485/701/195
f 497/719/401 498/721/401 486/720/401
f 498/721/596 499/741/596 487/722/596
f 499/723/403 500/743/403 488/705/403
f 489/707/404 488/724/404 501/726/404
f 490/867/202 489/707/202 502/727/202
f 491/710/201 490/709/201 503/729/201
f 503/729/597 504/731/597 492/730/597
f 504/731/598 493/749/598 481/732/598
f 505/733/406 506/751/406 494/734/406
f 506/735/209 507/736/209 495/716/209
f 496/868/519 495/716/519 508/737/519
f 508/738/207 509/739/207 497/719/207
f 498/721/408 497/719/408 510/740/408
f 510/740/599 511/757/599 499/741/599
f 511/742/600 512/759/600 500/743/600
f 512/744/215 513/745/215 501/726/215
f 513/745/601 514/762/601 502/727/601
f 514/746/213 515/747/213 503/729/213
f 515/747/602 516/748/602 504/731/602
f 516/748/412 505/766/412 493/749/412
f 517/750/222 518/869/222 506/751/222
f 518/752/221 519/753/221 507/736/221
f 519/753/220 520/771/220 508/737/220
f 520/754/219 521/755/219 509/739/219
f 521/755/218 522/756/218 510/740/218
f 522/756/603 523/775/603 511/757/603
f 523/758/524 524/870/524 512/759/524
f 513/745/227 512/744/227 525/761/227
f 525/761/226 526/780/226 514/762/226
f 526/763/225 527/764/225 515/747/225
f 527/764/604 528/765/604 516/748/604
f 528/765/605 517/784/605 505/766/605
f 529/768/418 530/769/418 518/752/418
f 530/769/233 531/770/233 519/753/233
f 531/770/232 532/788/232 520/771/232
f 532/772/231 533/773/231 521/755/231
f 533/773/606 534/774/606 522/756/606
f 534/774/607 535/792/607 523/775/607
f 535/777/421 536/778/421 524/760/421
f 536/778/239 537/779/239 525/761/239
f 537/779/422 538/796/422 526/780/422
f 527/764/237 526/763/237 539/782/237
f 539/782/526 540/783/526 528/765/526
f 540/783/424 529/800/424 517/784/424
f 541/785/608 542/786/608 530/769/608
f 542/786/609 543/787/609 531/770/609
f 543/787/244 544/804/244 532/788/244
f 544/789/243 545/790/243 533/773/243
f 545/790/610 546/791/610 534/774/610
f 546/791/611 547/808/611 535/792/611
f 547/793/612 548/794/612 536/778/612
f 548/794/251 549/795/251 537/779/251
f 549/795/429 550/812/429 538/796/429
f 550/797/249 551/798/249 539/782/249
f 551/798/613 552/799/613 540/783/613
f 552/799/614 541/816/614 529/800/614
f 553/801/258 554/802/258 542/786/258
f 554/802/433 555/803/433 543/787/433
f 555/803/256 556/820/256 544/804/256
f 556/805/434 557/806/434 545/790/434
f 557/806/615 558/807/615 546/791/615
f 558/807/616 559/824/616 547/808/616
f 559/809/617 560/810/617 548/794/617
f 560/810/437 561/811/437 549/795/437
f 561/811/438 562/828/438 550/812/438
f 562/813/261 563/814/261 551/798/261
f 563/814/260 564/815/260 552/799/260
f 564/815/618 553/832/618 541/816/618
f 565/817/270 566/818/270 554/802/270
f 566/818/535 567/819/535 555/803/535
f 567/819/268 568/833/268 556/820/268
f 568/821/267 569/822/267 557/806/267
f 569/822/266 570/823/266 558/807/266
f 570/823/619 571/834/619 559/824/619
f 571/825/276 572/826/276 560/810/276
f 572/826/620 573/827/620 561/811/620
f 573/827/444 574/835/444 562/828/444
f 574/829/273 575/830/273 563/814/273
f 575/830/621 576/831/621 564/815/621
f 576/831/536 565/836/536 553/832/536
f 1/1/539 2/3/539 566/818/539
f 2/3/281 3/5/281 567/819/281
f 3/5/280 4/7/280 568/833/280
f 4/8/279 5/10/279 569/822/279
f 5/10/449 6/12/449 570/823/449
f 6/12/537 7/14/537 571/834/537
f 7/15/622 8/17/622 572/826/622
f 8/17/287 9/19/287 573/827/287
f 9/19/286 10/21/286 574/835/286
f 10/22/452 11/24/452 575/830/452
f 11/24/453 12/26/453 576/831/453
f 12/26/540 1/27/540 565/836/540
